,date,keyword,new,source,title,day,month,year,score,magnitude,language
15,2013-01-07,1NKEMIA,"Puede decirse que Norgestión es una de esas empresas que van bien a pesar de la crisis. Durante el ejercicio 2012 ha participado en 10 operaciones corporativas, en las que han dominado las operaciones  de compra-venta industriales y también, aunque pueda parecer paradójico, también han destacado los casos de 'adquisiciones por parte de compañías españolas en el extranjero para ganar presencia internacional, no sólo para exportar', explica Oscar Sánchez Melgosa, socio director de la oficina de Bilbao de Norgestión. Otra de las actividades que ha experimentado un alza apreciable en la actividad de Norgestión han sido las reestructuraciones financieras de empresas. Por todo ello el propio Oscar Sánchez Melgosa constata que para ellos el ejercicio 2012 'ha sido un año razonablemente bueno, lo que no es poco para lo que está cayendo', para después indicar que en los últimos cuatro años Norgestion ha creado empleo, ha elevado su plantilla hasta los 51 profesionales, lo que equivale a haber aumentado un 15 por ciento su personal desde que comenzase la crisis. Pero para afianzar este crecimiento Norgestión ha decidido practicar con el ejemplo lo que recomienda a sus propios clientes: hay que internacionalizarse. La perspectiva internacional no le ha sido ajena a Norgestion, ya que prácticamente desde sus orígenes han contado con aliados en otros países, gracias a su papel como socio fundador de la alianza internacional Mergers Alliance (MA), que reúne a un equipo de 250 profesionales con presencia en 30 países. Pero, según explica Sánchez Melgosa, ahora se plantean dar un paso más, establecer su internacionalización como un proceso proactivo y estructurado. Para ello Norgestión, apoyándose en la plataforma de Mergers Alliance, quiere promover mayores sinergias a través de una mayor vinculación entre los asociados que favorezca el paso de un trabajo en red a una verdadera organización internacional. El socio director de la oficina de Bilbao de Norgestión constata que a pesar de la crisis hay dinero en los mercados para proyectos de crecimiento, cosa muy diferente es la financiación tradicional bancaria para el funcionamiento empresarial. 'Hay fondos de capital riesgo que tienen dinero disponible para invertir y que están esperando recibir ideas de buenos proyectos para invertir, porque es su vocación', recalca Sánchez Melgosa. Otra vía para financiar las empresas en crecimiento puede ser el Mercado Alternativo Bursátil (MAB) que en 2012 vio salir a cotización a cinco compañías: Carbures, Bionaturis, Suávitas, Ibercom y 1NKemia, captando 8,5 millones. Norgestión participó como asesor en una de estas operaciones, en la salida de Ibercom y según reconoce Sánchez Melgosa 'en nuestro animo está seguir encontrando compañías medianas en crecimiento y que hagamos más operaciones en este campo. Ya estamos trabajando en alguna que habrá que ver si culminan'. Para su salida al mercado Ibercom amplió de capital por 2,5 millones. Ibercom tiene una base de 15.000 clientes empresariales y en 2011 facturó 6,1 millones y un beneficio de 128.000 euros. Sus previsiones para 2015 son facturar 36,7 millones y ganar 7,9 millones. Una de las máximas de Norgestión es la discreción de las operaciones corporativas en las que participa, por lo que en muchos casos no se llega a conocer su implicación en los procesos. Únicamente cuando las compañías deciden comunicarlo, Norgestión sale a la luz. Este ha sido el caso de dos de las operaciones más recientes, la adquisición de la firma guipuzcoana Gresin (Grupo de Empresas Industriales) por parte de la multinacional ABB; y la compra del grupo asegurador catalán Cahispa por parte de la compañía Assegurances Generals d´Andorra. En la primera de estas operaciones Norgestión se encargó del asesoramiento a Gresin, una pequeña compañía con 18 años de historia y una plantilla de 16 trabajadores, que había logrado un posicionamiento internacional en el segmento de renovación de prensas mecánicas (orientadas a los talleres de estampación para el sector de automoción) y que a partir de ahora pasará a integrarse en la unidad de negocio Robotics de ABB, en la división Discrete Automation and Motion. En el caso de Cahispa la situación de partida era más complicada, ya que existía un enfrentamiento entre los socios de la compañía, que llegó a los tribunales y que afectaba a su funcionamiento. Pior un lado estaba la familia fundadora Muñoz y el grupo Corbis, que controlaba la mayoría del capital desde 2010 con la intención de sanear la firma. La solución vino por la vía de la venta de Cahispa a la aseguradora andorrana Assegurances Generals d´Andorra, otro grupo asegurador de origen familiar con más de 20 años de experiencia, que tiene un volumen de primas de 30 millones.",ecodiario,Norgestión da un nuevo giro a su proceso de internacionalización - elEconomista.es,7,1,2013,0.30000001192092896,9.600000381469727,es
17,2014-04-22,1NKEMIA,"2014 y 2015 pueden ser los años del despegue definitivo del Mercado Alternativo Bursátil (MAB). `Esperamos un aluvión razonable de empresas interesadas en salir al mercado. Si la liquidez aumenta, o al menos se mantiene, los inversores verán el MAB como una oportunidad de multiplicar su inversión que no van a tener en el Ibex 35 y otras 20 empresas podrían estar cotizando en él en 18 meses`, asegura a Francisco González, responsable de EY España (antigua Ernst & Young) para Latinoamérica y miembro del Consejo Global de EY. La firma de asesoría trabaja en estos momentos con seis o siete empresas de sectores tan distintos como el marketing y publicidad, el textil (basado en el modelo de franquicia), la biotecnología y la hostelería que están interesadas en salir al mercado para financiar su expansión internacional. Además, EY también tiene en sus manos el futuro lanzamiento de dos o tres socimis. [las rentas generadas por los inmuebles tributan al 0 por ciento siempre y cuando el activo esté en balance como mínimo tres años], por lo que tendrán un recorrido menor en el MAB`, explica Francisco González. Hasta el momento sólo dos, Entrecampos Cuatro y Promorent, han dado el salto al MAB y por el momento el saldo es positivo al revalorizarse un 31 y un 7,6%, respectivamente. El nacimiento del MAB en plena crisis económica ha hecho que el proyecto de diez de las empresas con las que EY ha trabajado en estos casi cinco años no llegara a buen puerto. `Hicieron sus deberes, pero por las condiciones del mercado no pudieron salir a bolsa`, apunta González. No obstante, en su currículum cuenta con el asesoramiento a cuatro de las compañías de este mercado para pymes en expansión: Imaginarium (en el pasado), Gowex, Euroespes y ahora también a NPG Technology. Esta última debuta hoy en el mercado con el propósito de ampliar su base accionarial, ofrecer una mayor liquidez a los accionistas y financiar su expansión principalmente por Latinoamérica para aprovecharse del apagón analógico que se producirá en esos países. Una oportunidad de negocio que ya explotó en España entre 2008 y 2010, cuando se convirtió en uno los proveedores más destacados en ventas de equipos de receptores de televisión digital terrestre (TDT). Además de en España, NPG también está presente en Portugal, Francia, China y recientemente en Colombia. La oferta de NPG es de 4,289 millones de acciones de nueva emisión de 0,05 euros de valor nominal cada una de ellas y el precio de referencia es de 1,36 euros. El MAB señaló que tomará como precio de referencia para la fijación del primer precio de la compañía el de la oferta privada. La primera subasta  puede hacer cambiar hasta un 50 por ciento el precio de referencia y en cada uno de los cambios -sólo marcará precios a las 12 y a las 16 horas al cotizar en fixing- la revalorización máxima que puede alcanzar es del 10 por ciento. Atención, atención. Se ofrecen 20 piscinas más con tiburones. Si alguien sale vivo o despellejado tendrá pingues beneficios. Sólo para incautos y traders intrépidos. Abstenerse inversores. ¿Qué porcentaje de empresas del MAB está en concurso de acreedores?¿que porcentaje gana en los últimos 3 años? TIC TOC, TIC TOC. en estas empresas puedes ganar, pero el riesgo es muchísimo, y puedes perder hasta las calandracas del c_ulo. Aquí nadie aprende, se inflan burbujas y nadie dice nada, el mab está muy inflado http://cuantovalemipiso.wordpress.com/ ¿Hay burbuja en el MAB? Puede, pero, en algunos valores. Otros como Altia, MedcomTech, Carbures o GOWEX están demostrando que se pueden hacer las cosas bien 1nkemia, bionaturis, medcomtech... marcan y marcarán la diferencia dentro del MAB, junto con las consabidas gowex y carbures.",elEconomista.es,Ernst & Young cree que 20 empresas más cotizarán en el MAB en 18 meses - elEconomista.es,22,4,2014,0.10000000149011612,11.399999618530273,es
19,2016-10-14,1NKEMIA,"  - Oct 14, 2016 - 10:00 (CET) Algunos rumores colocaban a Sanifit como la próxima en salir a cotizar en Estados Unidos, pero de momento su objetivo es ir a por más rondas. Que el sector biotecnológico en España está en alza es un hecho innegable. Años de recortes, que han marcado profundamente a la investigación del país, mermando su avances, parece ser que les han hecho más fuertes. Según explicaba el ,el sector I+D del país se recupera. Tanto que, incluso, el sector está en aportaciones al PIB. Quizá para el informe con datos de 2016, lo haya incluso superado. Ya en 2010, en pleno apogeo de la crisis financiera, y con visos de posicionarse a nivel internacional en no muchos años. Sólo afectada por los recortes, los analistas comprendían que era y es una industria que no está vinculada al ciclo económico. Dos informaciones contradictorias que, sin embargo, como nos comenta Joan Perelló, CEO de Sanifit, `aunque no vayan en la misma dirección no son incompatibles`. Su incremento de valor, que es el fin último, se visualiza con el paso de los años. Y esto es su virtud y su problema. En un sistema económico muy acostumbrado a que los réditos o beneficios de una empresa tengan sus frutos en un corto espacio de tiempo, el posicionamiento de las biotecnológicas como . Es, a fin de cuentas, un sector que necesita de mucha confianza a largo plazo, `en el que el riesgo y la posibilidad de retorno es muy alto`. Hace unos 10 años, el negocio biotecnológico en España apenas tenía repercursión. Se ha necesitado un tiempo, y las referencias del exterior, para que los inversores, incluidos los internacionales, pongan su atención en el país. `La presencia de un capital riesgo especializado, que ha crecido de forma paralela al sector, ha abierto la veda para las grandes rondas y la internacionalización`, comenta Joan. En cualquier caso, si la confianza, y por ende el dinero, no vienen de la mano de inversores privados, y de un aletargado sector público, con gran determinación en el sector, una de las alternativas más viables para las biotecnológicas ha estado en los mercados públicos. Zeltia, ahora PharmaMar, una pionera en esto de los mercados públicos, se estrenó en 1991. Y no tuvo ningún rival hasta quince años después con la entrada de Grifols a cotizar. Almirall o Rovi les siguieron en eso de codearse con . Algunas que de primeras no son del sector, pero que han terminado aportando tanto como cualquiera. Entre ellas Repsol, que aunque dedicada al negocio petrolero, cuenta con una de las divisiones más populares de investigación biotecnológica a nivel internacional. Las opciones entre los grandes del sector son muchas. Fernando Valdivieso, presidente de Neuron, ya comentó hace unos años que `el campo de la biotecnología es tan amplio que es difícil que haya rivalidad entre unas y otras`. Lo que , sobretodo con la entrada de muchas de ellas en el Mercado Alternativo Bursátil. Neuron Bio, dedicada la industria farmacéutica para el sector de , cotiza en este momento con una capitalización de 12.870 millones de euros. Y con ella conviven Neol Bio, Bionaturis, Bioseachr, AB-Biotics, 1nkemia, Facephi Biometría o Ebioss. La última en unirse: Oryzon Genomics. Considerada una de las biotecnológicas más exitosas e innovadoras en España. Esta ostenta el puesto de la más reciente en los mercados y algunas de las patentes más prometedoras en lo que a investigación del alzheimer se refiere. Junto con Zeltia se podría decir que son las `niñas bonitas` de la . Y sin embargo, no todo son buenas noticias. Las salidas a bolsa han sido siempre una opción para la financiación, pero comportan ciertos riesgos que no siempre están en manos de las propias empresas. `Algunas lo tienen más fácil entrar y otras más complicado`, comenta Joan, sobretodo si sólo tienen un producto para comercializar. Pero lo cierto es que el sector está muy flojo en los mercados públicos: un MAB que aporta poca liquidez o seguridad a las empresas y una tendencia a la baja de todas las acciones en circulación. De hecho, PharmaMar ha detenido su salida a bolsa en Estados Unidos hasta que de 1.000 millones de nuevo. Ante este panorama ciertamente desolador, una de las opciones es poner la mirada en el extranjero. Sin perder el norte, Joan afirma que la situación al sur de Europa sorprende bastante fuera de nuestras fronteras, pero aún queda mucho trabajo para ponerse a su altura. BTSA, con sede en Madrid, es una de esas biotecnológicas que quiere empezar a trabajar en el mercado continuo. Con previsión para empezar a listar en 2017, la firma, dedicada a crear vitaminas y antioxidantes, . Al contrario que sus compañeras de sector, quiere empezar en Reino Unido. ¿Por qué no en España? Muy sencillo: además de levantar los fondos necesarios para seguir con sus investigaciones, la compañía quiere darse a conocer en los mercados internacionales. Qué mejor forma que hacerse pública para ello. En cualquier caso, no es la única que tiene puestas sus intenciones en el extranjero. , biotecnológica del sector eHealth, podría tener su objetivo también en algunas de las bolsas de Estados Unidos. De nuevo, la recaudación de más dinero es su fin último, porque como comentaba Joan Perelló, CEO de la compañía, `los importes que requieren para operar son consecuencia de los estudios que deben llevar a cabo`. Es decir, que necesitan mucho dinero porque para una empresa que aún no ha comercializado su producto es básico. Aunque también nos confirma que `en caso de tener que financiar una fase III en el futuro (a 3 años vista) un IPO podría ser una opción`. Lo que les dejaría una segunda ronda pendiente, por el momento, para después saltar al mercado público. De momento, salir a bolsa es sólo una opción a largo plazo, pero que de darse ya están trabajando en ello. Su nueva sede al otro lado del charco les acerca un pasito más a esa posibilidad. En septiembre de 2015, la spin-off y, aunque financiar sus progresos era el objetivo principal, darse a conocer a los inversores extranjeros era prioritario. No sólo para ellos, sino para todo un sector en España.",Hipertextual,Biotecnología española cotizando dentro y fuera de las fronteras,14,10,2016,0.10000000149011612,21.299999237060547,es
11,2017-05-09,1NKEMIA,"La sociedad gestora de la Bolsa española ha anunciado la creación de dos nuevos índices representativos del segmento de empresas en expansión del MAB. Tal y como ha explicado BME en un comunicado, los índices, denominados Ibex MAB All Share, e Ibex MAB 15, nacen con la finalidad de dotar de visibilidad a las compañías del MAB, así como de servir de subyacente de productos financieros. Los dos nuevos índices comenzarán a calcularse y difundirse en tiempo real a partir del próximo 1 de junio, según ha indicado el MAB, que ha añadido que el índice Ibex MAB All Share estará compuesto por aquellos valores que cotizan en el segmento de empresas en expansión del MAB. Su objetivo es proporcionar visibilidad a las compañías del MAB, y medir su evolución en el mercado. `No tiene, por tanto, un número concreto de componentes`, ha añadido BME, que sobre el índice Ibex MAB 15, ha detallado que está diseñado para medir el comportamiento de las quince compañías con mayor volumen de contratación en el MAB. `Se trata de un índice selectivo, replicable y negociable`, ha precisado BME, que en este sentido, ha precisado que los índices serán calculados de acuerdo a lo estipulado en las normas técnicas para la composición y cálculo de los índices Ibex. El Comité Asesor Técnico de los índices Ibex llevará a cabo la revisión de la composición de estos índices con carácter semestral. Según BME, los componentes del Ibex MAB serán Altia Consultores, Carbures, Catenon, Ebioss Energy, Euroconsult, Eurona, Facephi, Home Meal, 1nkemia, Inclam, Masmovil, NBI Bearings Europe, Neuron Bio, Only Apartments, y Pangaea. BME ha recordado que el MAB es un mercado orientado a empresas de reducida capitalización que buscan expandirse, con el que se facilita un acceso sencillo y eficiente al mercado de valores. Y ello, mediante una plataforma específica de negociación diseñada para que puedan beneficiarse de importantes ventajas como financiación, visibilidad, liquidez, o valoración. Para comentar o valorar, por favor 11:12 11:01 10:36",Expansión.com,BME crea dos nuevos índices en el MAB,9,5,2017,0.20000000298023224,5.599999904632568,es
1,2017-06-27,1NKEMIA,"DESDE EL PARQUET La con­so­li­da­ción del MAB en los úl­timos meses está lle­vando a al­gunos ope­ra­dores a poner el punto de mira en em­presas que tra­di­cio­nal­mente pasan des­aper­ci­bidas para el con­junto del mer­cado por su es­caso ta­maño y li­qui­dez. No obstante, señalan estos bolsistas, en el segmento de empresas en crecimiento del mercado alternativo se pueden encontrar buenas oportunidades de negocio, que pueden dar muy grandes rentabilidades en el futuro. De botón de muestra ponen a MásMóvil, sociedad que ha iniciado los trámites para saltar al mercado continuo. Aunque reconocen que este es un ejemplo difícil de seguir, apostar por estos valores en un mercado cada vez más asentado puede generar muchos réditos. Entre las favoritas para posibles sorpresas positivas sitúan a 1nKemia. Su modelo de negocio gusta por su alta proyección y capacidad de generar conocimiento a través de la innovación. InKemia IUCT es grupo empresarial formado por tres empresas de alta tecnología, fundado en 1997 y orientado al desarrollo y explotación de nuevos productos, procesos y tecnologías para empresas de los sectores biotecnológico, farmacéutico y químico. Su negocio principal se basa en la explotación del conocimiento a través de licencias de las patentes y “know-how” propios, los contratos de I+D a medida, otros servicios tecnológicos y programas de transmisión del conocimiento. Las principales áreas de especialización son innovaciones en los campos del descubrimiento y desarrollo de fármacos, biotecnología industrial y la química verde. Un sector puntero que, según los expertos, genera la simpatía del mercado. Así lo parece confirmar su evolución en los últimos meses. Tras un largo proceso de consolidación que ha mantenido al valor por debajo de los 2,2 euros, su principal resistencia en los últimos meses, los expertos consideran que ahora está en disposición de continuar con el canal alcista puesto en marcha a finales de 2014.",CapitalMadrid,1nKemia genera simpatía | CapitalMadrid,27,6,2017,0.30000001192092896,7.300000190734863,es
22,2017-10-11,1NKEMIA,"     .lnk  Vista de los paneles de cotización de la Bolsa de Madrid.  En la última semana, más de una treintena de compañías que hasta entonces tenían su domicilio social en Catalunya han trasladado su domicilio social fuera de este territorio ante la inseguridad jurídica generada por la crisis catalana. Entre ellas, algunas tan emblemáticas como Caixabank, Gas Natural, Abertis o Banco Sabadell, por citar las más importantes. En muchos casos, la espantada ha sido posible gracias a por el Gobierno central para permitir a las compañías una mudanza exprés sin tener que convocar junta de accionistas. Por ahora, mantienen en Catalunya su domicilio social un total de 17 empresas cotizadas, frente a las 30 de hace una semana. Esas 17 sociedades emplean a unas 82.000 personas y este miércoles tenían un valor bursátil de cerca de 17.000 millones de euros. De ellas, solo una, Grifols, cotiza en el Ibex 35, principal índice bursátil en España, frente a las siete de hace una semana. Otras nueve están en el Mercado Continuo y otras siete, en el Mercado Alternativo Bursátil (MAB) de pequeñas y medianas empresas. Varias ya han avisado de que no descartan una mudanza si la situación sigue agravándose. : Con sede en Barcelona, un valor bursátil de unos 10.400 millones y 16.808 empleados a 30 de junio, la multinacional de hemoderivados ya ha dejado caer que no descarta mudarse si el escenario político afecta a su negocio. Su primer ejecutivo hasta enero y desde 1987, Víctor Grifols, nunca ha ocultado su simpatía por el nacionalismo catalán. En los últimos años la compañía ha concentrado buena parte de su actividad en el exterior, en especial, en territorios de baja fiscalidad como Irlanda. España apenas supone un 5% de sus ventas. : La cuarta constructora española por valor bursátil (unos 3.000 millones), tras Ferrovial, ACS y Acciona, no se plantea por ahora cambiar su sede, ubicada en Barcelona, pese al `sismo` que supone la situación de Catalunya, en expresión de su ahora máximo accionista, Carlos Slim. El multimillonario mexicano descartó la mudanza el martes, unas horas después de que el presidente catalán, Carles Puigdemont, anunciase en el Parlament una declaración de independencia inmediatamente suspendida y cuyos efectos reales ha pedido aclarar el Gobierno central antes de adoptar posibles medidas coercitivas. Con más de 55.000 empleados a 30 de junio, FCC, antes controlada por Esther Koplowitz, facturó el año pasado algo menos de 6.000 millones y triplicó sus pérdidas, hasta 165,2 millones. : La farmacéutica de la familia Gallardo mantiene su sede en Barcelona pese a la abierta oposición al independentismo de su presidente, Jorge Gallardo, que en septiembre de 2015 ya advirtió a sus empleados de las `consecuencias` de una victoria del secesionismo. Jorge Gallardo y su hermano Antonio, ambos accionistas de referencia de Almirall (y ambos acogidos a la amnistía fiscal de 2012) ya trasladaron en 2012 a Madrid la sociedad que canaliza su participación en Almirall, Grupo Corporativo Landon. Con 14.430 empleados y ventas de 1.585 millones en 2016, el valor bursátil de Almirall (que cotiza en el Continuo) ronda los 1.450 millones. : El fabricante de piscinas, con sede en Sabadell (Barcelona), una plantilla de 4.431 personas, ventas de 812 millones en 2016 y un valor bursátil de unos 980 millones, tiene como presidente ejecutivo desde 2016 a Eloi Planes, vinculado a la patronal independentista FemCAT, tal y como recoge la de esta organización. : la papelera, fabricante del papel de fumar Smoking, mantiene su sede en Barcelona. Con un valor bursátil de unos 610 millones, ventas anuales de 227 millones y 790 empleados, cotiza en el Mercado Continuo. : El histórico grupo industrial, con sede en Barcelona, tiene un valor de unos 280 millones, 1.366 empleados y unas ventas de 602 millones en 2016. Su presidente es Antonio Zabalza, ex secretario de Estado de Hacienda y ex director de gabinete de Felipe González. : Con sede en Sant Joan Despí, Barcelona, la farmacéutica fundada en 1929 cotiza en el Continuo y tiene 1.032 empleados, unas ventas anuales de 161 millones y una capitalización de 164 millones. : La empresa alimentaria, con sede en Reus (Tarragona), cotizaba desde 1987 en el mercado secundario y el pasado verano dio el salto al continuo, con una revalorización del 110% desde entonces. Tiene 389 empleados y una capitalización de unos 116 millones. : Es otra de las que ha abierto la puerta a cambiar su sede, ubicada en Barcelona, al advertir de que está `preparada para tomar de forma ágil las decisiones oportunas` a la vista de la situación política en Catalunya. Presente en la bolsa española desde 2006, la inmobiliaria superó un concurso de acreedores en 2014 y sentó en el pasado en su consejo de administración a los exministros del PP Josep Piqué y Anna Birulés. Su valor actual es de 94 millones y tiene 32 empleados. : La empresa de energías renovables, que va a reubatizarse como Audax Renovables, tiene su sede en Badalona y cotiza en el Continuo. Facturó 30 millones en 2016, tiene doce empleados y su valor bursátil es de unos 60 millones. : Esta empresa biotecnológica fundada en 1997 cotiza en el MAB y tiene un valor de unos 53 millones. Con sede en Mollet del Vallès (Barcelona), 68 empleados y filiales en Colombia, Estados Unidos, Reino Unido y Brasil, en 2016 declaró unas ventas de algo más de 2 millones, según sus cuentas de ese ejercicio, que fueron aprobadas por su auditor con salvedades (algo muy habitual en el MAB). Entre sus accionistas está un organismo de la Generalitat, el Institut Català de Finances (ICF), con un 3,29% a 30 de junio. : Especializada en tratamientos contra el cáncer, tiene sede en Barcelona y cuenta entre sus accionistas a la familia Solans, dueña de la aragonesa Pikolín. Con un valor de unos 25 millones, ventas de 2,5 millones en 2016 y 43 empleados, tiene un acuerdo con el Grupo Hospitalario Quirón que le ha permitido asumir la gestión del área de oncología de cuatro centros de este grupo sanitario en Catalunya. Pangaea cotiza en el MAB desde diciembre pasado. : Dedicada al alquiler vacacional y en el MAB desde 2014, tiene un valor bursátil de unos 19 millones, 42 empleados y una facturación de 3,3 millones en 2016. Su sede está en Barcelona. : Biotecnológica creada en 2004, es la primera firma catalana que salió a cotizar al MAB (en 2010). Tiene un valor bursátil de unos 19 millones, 38 empleados y unas ventas de cerca de 4 millones en 2016. El ICF catalán tiene un 3,29% de sus acciones. : Con sede en Barcelona, se define como empresa tecnológica `que ofrece soluciones en cloud a medios, anunciantes y operadores de telecomunicaciones`. Tiene 130 empleados, una facturación de 10,8 millones en 2016 y capitaliza 16,72 millones en el MAB. Entre sus socios está el ICF (4,64%) y un fondo participado por este, Inveready Seed Capital, con el 16%. : Ubicada en Cerdanyola del Vallès (Barcelona), presta servicios de telecomunicaciones y declara 52 empleados y unas ventas de 9,38 millones en 2016. Cotiza en el MAB desde 2016, con un valor de unos 9 millones. Su mayor accionista (15,16%) es Fonsinnocat SCR, fondo de capital riesgo en el que el ICF catalán es el socio mayoritario con el 50,75%, según sus últimas cuentas. : Con sede en Manresa, tiene un valor de unos 8 millones, 6 empleados y ventas de 5,4 millones en 2016. Suministra componentes a los sectores de automoción y aeronáutica. En la última semana, han abandonado Catalunya seis compañías del Ibex 35, cinco del Mercado Continuo y dos del MAB. De entre las que no cotizan, este miércoles ha continuado el goteo con la mudanza a Madrid de , adelantada por eldiario.es. De entre las cotizadas, le tocó el turno a Applus, que anunció a la Comisión Nacional del Mercado de Valores (CNMV) el traslado de su domicilio a Madrid `para mantener la operativa normal de la compañía y con el fin de proteger el conjunto de los intereses generales de la misma`. La certificadora, que hasta ahora tenía su domicilio social en Belaterra (Barcelona), tiene 14.430 empleados, ventas de 1.586 millones en 2016 y un valor bursátil de unos 1.500 millones. Fue la adjudicataria en 2010 de la gestión de parte de las ITV catalanas hasta 2035 y tiene entre sus asesores a David Madí, exjefe de Gabinete de Artur Mas reconvertido en empresario y considerado uno de los ideólogos del independentismo. Sí mantienen su sede en Catalunya compañías cuyos directivos están vinculados al independentismo a través de la fundación FemCAT, a la que pertenece el empresario y activista Jordi Cuixart, presidente de Òmnium Cultural. Entre las personas que integran FemCat, que hace unos días suprimió de su web toda la información sobre sus , están directivos de compañías como Agrolimen (de la familia Carulla, dueños de Gallina Blanca, Pans & Company o Avecrem), Simon (material eléctrico), los laboratorios Esteve, el grupo de componentes de automoción Ficosa, los supermercados Bon Preu, KH Lloreda (fabricante del quitagrasas KH-7), la inmobiliaria Vertix o el grupo turístico SERHS. Para reportar un error tienes que . Si ya estás registrado, Muy Bien, has hecho Like Para comentar tienes . Si ya estás registrado  Para poder comentar tienes que confirmar tu correo electrónico. para recibir el enlace de confirmación en tu bandeja de entrada        Ordenar por: |                Necesitamos tu apoyo económico para hacer un periodismo riguroso y con valores sociales.",eldiario.es,Estas son las 17 empresas cotizadas que mantienen su sede en Catalunya,11,10,2017,0.0,21.200000762939453,es
18,2018-04-06,1NKEMIA,"             también cruza el Ebro y , según recoge hoy el (Borme). Lo mismo ocurre con y otras cuatro entidades. es la cabecera de una red de 170 talleres independientes con la enseña , repartidos por toda la geografía peninsular. Están especializados en el cambio de neumáticos y llantas. La compañía pertenece al grupo italiano . Históricamente, todas las empresas del consorcio radicaban en Cataluña, alguna de ellas desde hace más de cien años. En los últimos meses se han trasladado a la capital levantina las firmas , y la propia . El informa de que también ha desembarcado en Valencia, calle Fontaneres nº 51. El consejo, va encabezado por Daniele De Ambrogio. Son vocales Daniel Barrena Mezquita y Javier Caballero Elviro. Con este movimiento societario, ya han desaparecido de Cataluña todas las compañías subsidiarias de que desempeñan actividades en España. Además de y , reseñada en otra noticia de , hoy se deslocalizan las siguientes entidades: , consultora tecnológica dirigida por Josep Castells Boliart. Posee un patrimonio neto de 12 millones. Abandona la calle Álvarez de Castro, de Mollet del Vallès, y reaparece en Santiago Grisolía nº 2 de Tres Cantos (Madrid). , dedicada a la promoción de establecimientos hoteleros. Se desplaza de la calle Aragó de Barcelona a Luis Pasteur nº s/n, de San Sebastián de los Reyes. . Su objeto social consiste en realizar inversiones en activos materiales destinados al aprovechamiento de fuentes de energía renovable. Así mismo, fabrica, vende y distribuye materiales para mejorar la utilización de tales energías. Su domicilio social, en Marqués de Mulhacén nº 11 en Barcelona, se ha movido a la calle Sor Ángela de la Cruz nº 10 de Madrid. , de Valls, agencia de publicidad y comunicación. Se reubica en calle Grecia nº 31 de Castellón de la Plana. Publicación asociada a:",Crónica Global,"Driver, filial catalana de Pirelli, se va a Valencia",6,4,2018,0.10000000149011612,9.5,es
2,2018-06-27,1NKEMIA,"La CNMV ha suspendido temporalmente las suscripciones y los reembolsos en dos fondos de inversión: Annapurna FI y Esfera Renta Variable Internacional FI de Esfera Capital Gestión. El regulador asegura que adopta esta decisión debido a la elevada exposición de los dos fondos a valores poco líquidos que cotizan en el Mercado Alternativo Bursátil (MAB). Annapurna cuenta con 1.982 partícipes, un patrimonio de 46,07 millones de euros y acumula una caída del 5,66% en el año, según datos de Morningstar. El fondo, según precisó ayer, mantiene una exposición del 32,16% a valores con poca liquidez. Sus mayores participaciones están en Home Meal (7,12%), Eurona Wireless (6,16%), 1nkemia (3,65%) y Euroconsult Engineering Consulting (3,5%). Por su parte, Esfera Renta Variable Internacional tenía 1.089 partícipes a cierre del primer trimestre y un patrimonio bajo gestión más reducido, de 7,64 millones de euros, y acumula también un retroceso en el año del 6,76%. En su caso, la exposición a valores con escasa liquidez baja al 29,15% y sus mayores exposiciones también están Home Meal (6,55%), Eurona (6,52%) y 1nkemia (5,29%). El regulador justifica su decisión en que siete sicavs gestionadas por la gestora Esfera Capital Gestión (Alfagón 1; Busbac 1994; Geiser Inversiones 2000; Gestio Plus 2000; Global Stock Picking; Sagitari 2000 y Sigma Activa) también mantienen un nivel de inversión significativa en estos mismos valores. Estos vehículos de inversión han solicitado igualmente la suspensión de su cotización. Esfera Capital Gestión tenía delegada la gestión del fondo Annapurna en la agencia de valores Q-Renta AV, mientras que había retomado desde marzo la gestión del Esfera Renta Variable Internacional. Q-Renta AV también gestiona por delegación una de las sicav, SICAV K2 2006, cuya gestora es Credit Suisse, y que también ha pedido la suspensión de su cotización. La gestora está analizando a instancias del regulador las posibles soluciones para que pueda reanudar su operativa en la mayor brevedad posible sobre el patrimonio restante que no se ha visto afectado por la falta de liquidez, entre las que se encuentra la creación de compartimentos de propósito especial o reembolsos parcialmente en especie, según explica la CNMV. El supervisor presidido por Sebastián Albella ha venido realizando un seguimiento de la evolución del patrimonio de estas entidades y, dentro de este marco, había pedido a las entidades responsables de su gestión la adopción de medidas de control y vigilancia de liquidez de las carteras, que según reconoce, `han resultado insuficientes dada la evolución de los reembolsos`.",Cinco Días,La CNMV suspende los reembolsos de dos fondos con alta exposición al MAB | Mercados | Cinco Días,27,6,2018,-0.10000000149011612,5.300000190734863,es
3,2018-06-28,1NKEMIA,"I am going to take a deep dive into 1nKemia IUCT Group SA’s ( ) most recent ownership structure, not a frequent subject of discussion among individual investors.

    A company’s ownership structure is often linked to its share performance in both the long- and short-term.

    The same amount of capital coming from an activist institution and a passive mutual fund has different implications on corporate governance, which is a decisive factor for a long-term investor. It also impacts the trading environment of company shares, which is more of a concern for short-term investors.

    Therefore, I will take a look at IKM’s shareholders in more detail.   With a low level of institutional ownership, investors in IKM need not worry about non-fundamental factors such as ownership structure causing large impact on stock prices.




	However,

	ownership structure should not be the only focus of your research when constructing an investment thesis around IKM.

	Rather, you should be looking at fundamental drivers

	such as

	the intrinsic valuation, which is a key driver of 1nKemia IUCT Group’s share price.

	I

	urge

	you to complete your research by taking a look at the following:   ",elEconomista.es,Who Are The Largest Shareholders In 1nKemia IUCT Group SA (BME:IKM)? – Simply Wall St News,28,6,2018,0.0,2.0,en
5,2018-07-07,1NKEMIA,"VALÈNCIA. Tal y como sucedió el pasado año en el Mercado Continuo - - fueron las empresas del sector de renovables las que mejor se comportaron en el Mercado Alternativo Bursátil (MAB) dentro del segmento de empresas en expansión. Así lo delatan los datos aportados por , líder independiente en Equity Reseach en el MAB, a teniendo en cuenta a las 15 de mayor peso, que dan vida al Ibex MAB 15, es decir, el índice de referencia de dicho mercado. (+254,55%), (+196,75%) y (+96,20%) fueron el triplete ganador dentro del Ibex MAB 15, cuyos valores más castigados fueron (-45,92%), (-52,63%) y (-67,25%). no solo fue la mejor del MAB sino de todo el Mercado Continuo. La compañía, que cotiza en el MAB desde 2015, despidió 2018 en máximos históricos cerca de los 6 euros por acción y con una capitalización de 142 millones de euros, más de cuatro veces por encima del valor con el que saltó al parqué hace poco más de tres años (31,36 millones). Unas cifras que llegan poco después de que la compañía presentara sus resultados del primer semestre en los que alcanzó un Ebitda de 5,14 millones de euros y un beneficio neto de 3 millones de euros apoyada en su política de rotación de activos y en su particular estrategia de diversificación geográfica hacia el mercado latinoamericano, una región que encabeza la revolución renovable mundial, donde se encuentra implantada en Chile, Perú, México, Argentina y Colombia. Precisamente en Chile, Grenergy, que es la compañía con más plantas fotovoltaicas conectadas a la red hasta la fecha con 18 proyectos y 95MW conectados, (Pequeños Medios de Generación Distribuida) con una potencia de 125 MWp y una inversión total en bienes de capital de en torno a 125 millones de euros. . A continuación se situó , que consiguió consolidarse como la mayor empresa del Mercado Alternativo Bursátil sustituyendo a Altia tras incrementar su valor en un 196,75% en un año, hasta los 155,04 millones de euros. El grupo gallego se ha marcado como objetivo los próximos cinco ejercicios para completar su proyecto de planta de biomasa, añadida a los proyectos de energía y sus actividades de explotación forestal. Además, . `Greenalia está trabajando para convertirse en una de las principales empresas de energía alternativa de Europa, y para ello tenemos que dar los pasos necesarios. Salir al Mercado Continuo es, para nosotros, un hito clave en nuestro desarrollo a medio plazo`, afirmaba entonces su consejero delegado, Manuel García; semanas después de presentar su nuevo plan estratégico que tiene por objetivo potenciar la generación de energías con tecnologías eólica y fotovoltaica, que son rentables a precios de mercado. La empresa prevé estructurar contratos de venta de energía con compradores de acreditada solvencia y participar en subastas futuras. El tercer puesto del cajón dentro del Ibex MAB 15 lo ocupó , que se vio impulsada por la participación de Kaneka en su capital. Además, la biotecnológica recortó sus pérdidas en un 85% y disparó sus ingresos un 82% gracias a la progresión del negocio y por la puesta en marcha de los `numerosos` acuerdos firmados por la firma en el período comprendido entre 2014 y 2017, t. A juicio de ambos el corto plazo `está bien armado` y la empresa seguirá creciendo `aceleradamente y con rentabilidad. Pero no vamos a olvidar el compromiso con la investigación y el desarrollo de AB-Biotics es la base de un crecimiento sostenido a largo plazo. En este sentido el acuerdo con la multinacional japonesa (Kaneka) nos va a permitir, no solo entrar en nuevos mercados, sino que además nos permitirá potenciar nuestro I+D`. Pero no todas las compañías tuvieron gratas sorpresas, sino al contrario y les tocó comerse las uvas en rojo. Y al frente de las mismas se situó , que se dejó en 2018 prácticamente un 86%; mientras que el segundo lugar del 'cajón bajista' lo ocupó Eurona Telecom, cuya cotización bajó un 71,56% tras reducir su dimensión, afectando al volumen de facturación, y se deshizo de activos estratégicos, afrontando el 2019 con la intención de recuperar el tiempo perdido. . tras llegar a un acuerdo con la plataforma de contenidos audiovisuales estadounidense Starz para la venta y emisión de dos temporadas de la serie de animación 'Sissi, la joven emperatriz'. De hecho, . Por lo demás, y según los datos recogidos por Mabia, durante 2018 el Ibex MAB 15 registró pérdidas al bajar un 16,16% hasta los 907,6 puntos. El selectivo además sufrió distintos cambios de composición significativos y llegó a Nochevieja con 13 empresas. De todas ellas, la mayor ponderación fue la cotizada ; mientras que fue otro año de ganancias para y donde trimestre tras trimestre ambas compañías incrementaron el volumen de ventas. En el caso específico de Gigas, , mediante una operación de financiación con bonos convertibles. El mismo patrón se replicó en la cotización de y , cuyas acciones subieron un 53,85% y un 9,82%, respectivamente, recibiendo financiación del fondo de inversión. De todas las compañías con plusvalías en 2018 también vale la pena mencionar a . Además de sumar un 38,81% a su capitalización, el grupo incorporó sus acciones al mercado europeo Euronext Growth en la modalidad de cotizando simultáneamente en dos mercados-, . A lo largo del pasado año, el parqué alternativo dio la bienvenida a tres nuevas empresas: , y . La llegada de las nuevas compañías fue compensada por la despedida de , que hizo el deseado salto al Mercado Continuo. mediante la fusión con . Por otro lado, pero a través de una operación de exclusión que finalizará a principios de este año 2019. Otras compañías llegaron peor a fin de año. Las acciones de y fueron suspendidas, tras acogerse al concurso de acreedores. , antes , y solicitaron el preconcurso, aunque sus títulos siguen negociándose en el mercado. también fue suspendida el día de Nochebuena, después de rescindir el contrato de proveedor de liquidez con el Banco Santander. Durante el año pasado una quinta parte de las cotizadas se revalorizaron por encima de un 80%. Incluyendo dos compañías que cerraron el 31 de diciembre con ganancias superiores a un 190%. Estas rentabilidades son difíciles de obtener en otras plazas bursátiles, y más todavía en cotizadas de mayor tamaño. En el lado opuesto, un 20% de empresas cotizadas perdieron más de un 40% de su valor a lo largo del año 2018. Incluyendo un par de compañías que registraron caídas de más del 70%. Valencia Plaza, desde cualquier medio Todos los días a primera hora en tu email",Funds People,"Grenergy, Greenalia y AB-Biotics, triplete ganador en el MAB durante 2018 -  Valencia Plaza Lobo.",7,7,2018,0.10000000149011612,19.899999618530273,es
9,2018-07-20,1NKEMIA,"El presidente de la agencia de valores, David Albacete, recuerda que pese a la dificultad de los últimos dos años han logrado preservar el patrimonio de sus clientes en gestión discrecional de carteras VALÈNCIA. Como es habitual cada año, Qrenta AV realizó su reunión anual de clientes en el Auditorio Axa de Barcelona, con una asistencia superior de más de 300 clientes. , Qrenta explicó las nuevas y favorables perspectivas que se plantean para este año 2017, tras los difíciles últimos dos años, si bien superados en Qrenta consiguiendo una vez más su principal misión de preservar el patrimonio de todos su clientes en gestión discrecional de carteras y conseguir una remuneración adicional para incrementarlos. Este año las perspectivas son mucho mejores y como concluyó , las mismas por el momento apuntan a rentabilidades sustancialmente superiores. Empezó el acto con la exposición por parte de varias empresas del Mercado Alternativo Bursátil (MAB), moderadas por , interviniendo: por parte de Eurona, por Home Meal (Nostrum), por 1NKEMIA, por Vytrus y por Asturiana de Laminados (elZinc). Todos ellos expusieron la marcha actual de su empresa, los proyectos en curso y el valor oculto de estas empresas aún no recogidos en sus balances ni en el precio actual de las acciones. Asimismo se dieron a conocer varias primicias de estas empresas realmente alentadoras, así como reconocimientos que algunas han recibido recientemente, tales como el premio Beauty Industry Awards como mejor producto mundial otorgado recientemente a Vytrus. , entre otras cuestiones, desglosó las estrategias de inversión 'core' de la agencia así como las inversiones tácticas 2017, adaptadas de nuevo a las circunstancias actuales de la economía y del mercado y la profunda gestión de control de riesgos, que ha hecho posible en estos 24 años la preservación y aumento de patrimonios de los tres mil clientes actuales de la agencia, que siguen creciendo cada año. Asimismo (el fondo de renta fija con mayor rentabilidad en España en 2016) así como el fondo Ejecutivos (fondo de fondos de renta variable, en el que participan gestoras con tan buenos rendimientos como Valentum, Cobas, azValor, Bestinver, Belgravia, Magallanes….). La velada estuvo amenizada por el excelente grupo musical Saphie Welles & The Swing Cats. Como también es habitual cada año, estas reuniones con clientes, Qrenta también las realiza en las ciudades donde Qrenta tiene oficinas: así ya se celebró en San Sebastián y Lleida recientemente y próximamente se organizarán en Madrid y Dejó la banca para recuperar, precisamente, lo que más le gustaba de ella: poder trabajar directamente con el cliente en una agencia de valores Valencia Plaza, desde cualquier medio Todos los días a primera hora en tu email",Economía Digital,"Qrenta AV, con oficina en València, ve 'luz en el camino' para mejorar sus cifras este año -  Valencia Plaza Lobo.",20,7,2018,0.20000000298023224,6.300000190734863,es
10,2018-07-26,1NKEMIA,"27/07/2018 | 08:10 0 Con la salida a cotización de Testa ya son en el Mercado Alternativo Bursátil ( ): 58 en el segmento Socimis y 42 en el segmento de Empresas en Expansión. Aunque los comienzos no fueron sencillos, ni todas las empresas que han utilizado el para financiarse han sido exitosas, los datos reflejan la consolidación de este mercado y el cumplimiento de su de empresas que por su tamaño no pueden acceder al primer mercado bursátil.  El español nació en como un mercado destinado a . Posteriormente, en ( ), la versión española de los REITs anglosajones. Las 100 empresas cotizadas en el , han logrado financiación a través de 166 ampliaciones de capital por un importe de 1.711 millones de euros, 837 millones en Empresas en Expansión y 874 en Socimis.      El segmento de Socimis, aun siendo más reciente, es un claro caso de éxito. En menos de cuatro años ya cotizan 58 Socimis con una capitalización conjunta que supera los 10.000 millones de euros. De forma progresiva distintos inversores institucionales, muchos de ellos extranjeros, y en menor medida minoristas comienzan a visualizar las Socimis como una forma atractiva de invertir en el sector inmobiliario sin tener que poseer directamente inmuebles. Aunque con décadas de retraso respecto a los REITs de otros países, finalmente se han sentado las bases para el desarrollo de este mercado en España tan exitoso en otros países.  La incorporación de una empresa a un mercado como el no garantiza su éxito futuro, pero le proporciona una y una capacidad de crecimiento de la compañía a través de la captación de recursos propios.  Las compañías que han entendido que su inicio de cotización en el era el inicio de un largo camino y no la meta de llegada, han tenido la posibilidad de realizar sucesivas ampliaciones de capital o incluso de realizar operaciones de crecimiento inorgánico utilizando las propias acciones como moneda de pago en la adquisición de compañías. La salida a cotizar a un precio razonable y el trasladados al mercado son factores fundamentales para lograr y mantener la confianza de los inversores.  MásMóvil Ibercom es un claro ejemplo de éxito en el . Ibercom salió a cotizar en marzo de 2012 mediante una ampliación de capital de 2,5 millones de euros. Al año siguiente acometió una ampliación de capital de 4 millones de euros. Tras integrarse con MásMóvil realizó una nueva ampliación de 25 millones de euros y compró diversas empresas. Posteriormente, realizó una ampliación de capital de 160 millones de euros antes de dar el salto al primer mercado.  La evolución natural de las empresas cotizadas en el es una vez alcancen tamaño suficiente. El actúa como instrumento para facilitar el crecimiento de las empresas, siendo una cantera natural de futuras incorporaciones al primer mercado bursátil.  Aunque existen empresas pertenecientes a muy diversos sectores, el 70% de las compañías cotizadas en el se engloban en el sector de TIC (Tecnologías de Información y Comunicación) o intensivos en I+D+i.  Aunque se hable poco de ellos, los casos de éxito en el son numerosos. Además de MásMóvil Ibercom, Altia ha logrado multiplicar su valor por 4,5 veces desde su salida a bolsa. Cinco compañías adicionales, Atrys Health, Gigas, 1nkemia, Secuoya y Grenergy, han duplicado su valoración desde su estreno en el . En términos de facturación, resultados operativos y empleos, el crecimiento también ha sido significativo. Entre 2013 y 2017 la facturación de las empresas del prácticamente se ha duplicado y el empleo ha aumentado un 50%.  El ha demostrado su utilidad para financiar vía recursos propios a empresas que no tienen el tamaño de acudir al primer mercado. Ante las insistentes recomendaciones de Bruselas de promover las vías de financiación empresarial distintas del canal bancario ( ) sería deseable que se aplicaran las mismas , con notable éxito. No hace falta innovar en este tipo de medidas. Es suficiente con copiar lo que ha funcionado en otras jurisdicciones. Acepto las reglas de participación Usuario registrado  © Síguenos en",Expansión.com,El blog de JSQ - Ha100do mercado - Blogs Expansión.com,26,7,2018,0.30000001192092896,14.699999809265137,es
24,2018-08-10,1NKEMIA,"This analysis is intended to introduce important early concepts to people who are starting to invest

    and want a simplistic look at the return on PPG Industries Inc ( ) stock. If you purchase a PPG share you are effectively becoming a partner with many other shareholders.

    Owing to this, it is important that the underlying business is producing a sufficient amount of income from the capital invested by stockholders.

    Your return is tied to PPG’s ability to do this because the amount earned is used to invest in opportunities to grow the business or payout dividends, which are the two sources of return on investment.

    To understand PPG Industries’s capital returns we will look at a useful metric called return on capital employed. This will tell us if the company is growing your capital and placing you in good stead to sell your shares at a profit.   Choosing to invest in PPG Industries comes at the cost of investing in another potentially favourable company.

The cost of missing out on another opportunity comes in the form of the potential long term gain you could’ve received, which is dependent on the gap between the return on capital you could’ve achieved and that of the company you invested in. Hence, capital returns are very important, and should be examined before you invest in conjunction with a certain benchmark that represents the minimum return you require to be compensated for the risk of missing out on other potentially lucrative investments.

To determine PPG Industries’s capital return we will use ROCE, which tells us how much the company makes from the capital employed in their operations (for things like machinery, wages etc).

I have calculated PPG Industries’s ROCE for you below:  Return on Capital Employed (ROCE) = Earnings Before Tax (EBT) ÷ (Capital Employed)  Capital Employed = (Total Assets – Current Liabilities)  ∴ ROCE = US$1.89b ÷ (US$16.79b – US$4.05b) = 14.85%  The calculation above shows that PPG’s earnings were 14.85% of capital employed.

    

        A good ROCE hurdle you should aim for in your investments is 15%, which PPG has just fallen short of, meaning the company creates an unideal amount of earnings from capital employed. Although PPG Industries is in an unfavourable position, you should know that this could change if the company is able to increase earnings on the same capital base or find new efficiencies that require less capital to produce earnings.

    So it is important for investors to understand what is going on under the hood and look at how these variables have been behaving.

    

        If you go back three years, you’ll find that PPG’s ROCE has decreased from 15.19%.

        

            In this time, earnings have fallen from US$1.94b to US$1.89b and

            

                capital employed declined as well albeit by a relatively smaller amount, signifying ROCE decreased as a result of a greater fall in earnings compared to the business’ use of capital. PPG Industries’s ROCE has decreased in the recent past and is

          currently at a level that makes us question whether the company is capable of providing a suitable return on investment.

          However, it is important to know that ROCE does not dictate returns alone, so you need to consider other fundamentals in the business such as



                  future prospects and valuation.

                  If you’re interested in diving deeper, take a look at what I’ve linked below for further information on these fundamentals and other potential investment opportunities.    ",Simply Wall St,Does PPG Industries Inc (NYSE:PPG)’s Capital Return Make The Cut? – Simply Wall St News,10,8,2018,0.0,6.0,en
4,2018-08-10,1NKEMIA,"Email Obligatorio. Email incorrecto. Email Obligatorio. Email incorrecto. Los fondos de la gestora , por la exposición que tenían a valores poco líquidos del Mercado Alternativo Bursátil (MAB). A través de dos hechos relevantes publicados el viernes, la gestora informó de Estos compartimentos, conocidos en inglés como side pocket, son un tipo de cuenta utilizada tradicionalmente por los hegde funds para separar los activos ilíquidos y poder mantener así el ritmo de suscripciones y reembolsos para el resto de la cartera sin perjudicar a los clientes que se quedan en el fondo frente a los que salen del mismo. Según los hechos relevantes publicados en CNMV, el fondo incluirá en su compartimento las posiciones en Cerbium Holding, Euroconsult, Home Meal, Tecnoquark, Inclam, Eurona Wirel y 1Nkemia I, que , según las actuales valoraciones. Este porcentaje es ligeramente superior al 29,15% informado el 27 de junio debido, según explicó la gestora a Funds People, a las fluctuaciones de mercado de los valores en cartera. En el caso del fondo , los títulos afectados son emisiones de renta fija y variable de Home Meal, Asturiana de Laminados, Clever Glo, Eurona, Cerbium Holding, Euroconsult, Inclam, Eurona Wirel y 1Nkemia I, que representan el según las valoraciones actuales. En este caso, la cifra es inferior al 32,16% informado el 27 de junio debido también a las fluctuaciones de cotización en estos nueve días. Según el hecho relevante, los partícipes (unos 3.000 clientes entre los dos fondos) recibirán en proporción a su inversión en el fondo participaciones en estos compartimentos creados. A partir de ahora, la labor de la gestora será . Una venta que, según reconocen desde Esfera, . A medida que se vayan realizando las ventas, los partícipes de los fondos podrán elegir entre recibir el dinero en efectivo u optar por un traspaso al compartimento líquido. Además de estos dos fondos, hay en las que están algo más de 2.500 accionistas. Según ha explicado a Funds People, el consejero delegado de Esfera Capital Gestión, José Antonio Andrés, con la creación de un compartimento de propósito especial. Pero debido a la diferente naturaleza jurídica de las sicav frente a los fondos, Se trata de Alfagon 1, Busbac 1994, Geiser Inversiones 2000, Gestió Plus 2000, Sagitari 2000, Sigma Activa y Global Stock Picking. En estas sicav, el peso de los activos menos líquidos oscila, por lo general, entre cifras inferiores al 10% y otros que no alcanzan el 30%. Mención aparte merece la sicav de su cartera en valores del MAB. En este sentido, las posiciones ya estaban presentes en las carteras cuando los fondos llegaron procedentes uno de ellos de Gesiuris en marzo de este año, el Esfera Renta Variable Internacional, y otro de Inversis Gestión, el Annapurna en julio de 2017. Hay que destacar que “Desde el momento que nos hemos hecho cargo de los productos hemos realizado un seguimiento de los activos menos líquidos y, debido a los reembolsos y a las caídas de precios, al ver cómo aumentaba el peso de estas partes menos líquidas, hemos intervenido para proteger a todos los partícipes”, explican a Funds People desde Esfera Capital Gestión. Annapurna y Esfera Renta Variable Internacional mantendrán la misma filosofía de gestión pero con la capacidad de gestión de Trea AM. Las nueve IIC que eran asesoradas y/o gestionadas por Qrenta pasarán a ser gestionadas por Trea AM. Además, siete sicav de la misma gestora anuncian la suspensión de la cotización. Salvo uno de los fondos, el resto tienen delegada la gestión en la agencia de valores Q-Renta. Lo más leído Próximos eventos Usamos cookies para personalizar su experiencia. Si sigue navegando estará aceptando su uso. ",Simply Wall St,Los dos fondos de Esfera recuperan la operativa en nueve días tras aislarse los activos menos líquidos,10,8,2018,0.0,13.899999618530273,es
8,2018-12-24,1NKEMIA,"Hoy Finanzas.com Edición Galicia Ideas Libros Turismo Deportes  Carles Huguet Economía Digital           A pesar de casos de éxito recientes como el de , la sombra de dudas todavía acompaña al . , pero la lista de decepciones es larga: hasta pasando por , o . El valor en los parqués se resiente y el índice sólo vale hoy 1.297 millones de euros. Menos que hace seis años, cuando tenía la mitad de empresas. Los datos de la firma de análisis muestran como la capitalización conjunta de las 41 compañías no alcanzaba los 1.300 millones el 1 de julio. El valor es inferior al de 2013, cuando el índice cerró el año en 1.679 millones de euros y sólo 21 empresas. Desde entonces, el precio no bajó de esa cifra con un 2016 álgido alcanzando los 2.154 millones de euros. Además, la tónica fue constante a lo largo del semestre. Todos los meses se cerraron con una rentabilidad negativa a excepción de abril, donde el valor subió el 3,07%. A partir de entonces, se despeñó: -5,05% en junio y -4,27% en julio. En 2018 van camino de moverse sólo 150 millones en el MAB; la cifra más baja desde 2012 Más allá del precio total, : el volumen de negociación, también en mínimos. Con 75,8 millones de euros movidos, las proyecciones sitúan la cantidad a final de año alrededor de los 150 millones. Desde 2012 no se registraba tal atonía, pues aquel ejercicio se jugaron 49,9 millones. Luego, jamás se cayó de los 250 millones; con un pico de 1.623 millones en 2014 por la burbuja y posterior estallido de Gowex. Los analistas de Mabia tienen claro el motivo de la caída. Lo achacan a dos de los valores más antiguos del selectivo, y . “La primera se está reinventando, con varios años de tendencia negativa y 2019 va a ser clave para ver si consigue dar un giro de 180 grados”, señalan. Mientras, “la segunda previsiblemente abandonará el mercado después de ser absorbida por ”, concluyen. Los inversores tienen miedo de no encontrar comprador para sus acciones, por ello el MAB es poco atractivo Además, el índice sufre al apenas contar con una empresa con una capitalización mayor a 100 millones de euros que arrastre al resto después del . El bróker explicaba a que se trata de un mercado demasiado pequeño. “La idea es buena, pero le falta tamaño, no tenemos ni un decente”, diseccionaba. Al haber poco movimiento, la liquidez es baja y muchas de las empresas sólo sacan a bolsa una pequeña parte, por lo que el inversor puede tener problemas para encontrar comprador de sus acciones. “Como es un mercado pequeño, si entras con una posición importante, cuando quieres salir puedes hundir la acción”, sentencia. Por ejemplo, el viernes 20 de julio sólo se jugaron acciones de 18 de las 41 cotizadas. Valores como cambiaron apenas 150 euros. Las cifras de rentabilidad de Mabia son claras a la hora de revelar caídas superiores al 40% en algunas de las compañías en lo que va de año. Más allá del descalabro de Carbures (-21,7%), las cinco peores empresas en el primer semestre fueron Eurona (-41,94%), (-40%), (-29,29%), (-25.97%) y (-24,16%). También hay espacio para las buenas noticias en el año en que se consolidó como la única cotizada en superar los 100 millones de euros de capitalización. Las firmas que registraron mayores subidas hasta el mes de julio fueron (+58,79%), (+62,69%), (+67,64%), (+76,72%) y (+129,11%). La palabra burbuja todavía parece lejana: ninguna de estas empresas supera los 60 millones de euros de valor y otras como ha venido alertando, no llegan a los 40 millones. Para comparar, Gowex pinchó cuando valía 1.400 millones de euros.  Hemeroteca Al suscribirte confirmas nuestra            Economía Digital, SL | NIF: B63785372 | Registro mercantil de Barcelona (libro 37.500; folio 163; sección general, hoja/dup 301.303; provincia B; inscripción 1) | Copyright 2008-2018.  ",Cinco Días,La decadencia del MAB: vale menos que en 2013 con el doble de empresas,24,12,2018,-0.20000000298023224,13.600000381469727,es
6,2019-01-04,1NKEMIA,"It’s not a secret that every investor will make bad investments, from time to time.
    But it would be foolish to simply accept every extremely large loss as an inevitable part of the game.
    It must have been painful to be a ( ) shareholder over the last year, since the stock price plummeted 85% in that time.
    That’d be a striking reminder about the importance of diversification.
  
    We note that it has not been easy for shareholders over three years, either; the share price is down 83% in that time.
  


    Furthermore, it’s down 24% in about a quarter. That’s not much fun for holders. We really feel for shareholders in this scenario. It’s a good reminder of the importance of diversification, and it’s worth keeping in mind there’s more to life than money, anyway.   Because 1nKemia IUCT Group is loss-making, we think the market is probably more focussed on revenue and revenue growth, at least for now.
    Generally speaking, companies without profits are expected to grow revenue every year, and at a good clip.
    Some companies are willing to postpone profitability to grow revenue faster, but in that case one does expect good top-line growth. In the last year 1nKemia IUCT Group saw its revenue grow by 152%.
          That’s well above most other pre-profit companies.
              So the hefty 85% share price crash makes us think the company has somehow offended market participants.
              There’s clearly something unusual going on here such as an acquisition that hasn’t delivered expected profits.
              We’d recommend taking a very close look at the stock (and any available forecasts), before considering a purchase, because the share price is correlated with the revenue growth, that’s for sure.
              Of course, investors do over-react when they are stressed out, so the sell-off could be unjustifiably severe. The graphic below shows how revenue and earnings have changed as management guided the business forward. If you want to see cashflow, you can click on the chart. Balance sheet strength is crucual. It might be well worthwhile taking a look at our  . While the broader market lost about 1.9% in the twelve months, 1nKemia IUCT Group shareholders did even worse, losing 85%.
          However, it could simply be that the share price has been impacted by broader market jitters. It might be worth keeping an eye on the fundamentals, in case there’s a good opportunity.
        
            Unfortunately, last year’s performance may indicate unresolved challenges, given that it was worse than the annualised loss of 30% over the last half decade.
            Generally speaking long term share price weakness can be a bad sign, though contrarian investors might want to research the stock in hope of a turnaround.
      
    



    You could get a better understanding of 1nKemia IUCT Group’s growth by checking out of earnings, revenue and cash flow. If you would prefer to check out another company — one with potentially superior financials — then do not miss this     ",valenciaplaza.com,Did You Manage To Avoid 1nKemia IUCT Group’s Devastating 85% Share Price Drop? – Simply Wall St News,4,1,2019,0.0,11.399999618530273,en
20,2019-02-04,1NKEMIA,"VALÈNCIA (VP). Valencia Plaza, desde cualquier medio Todos los días a primera hora en tu email",valenciaplaza.com,"Greenalia, cotizada del MAB, emite un 'bono verde' de 6 millones de euros -  Valencia Plaza Lobo.",4,2,2019,0.10000000149011612,0.20000000298023224,es
14,2019-02-19,1NKEMIA,"MADRID (EP). , nuevo director del área de Relación con Inversores y Comunicación, según informó la empresa en un comunicado. La compañía española productora de energía a partir de fuentes renovables indicó que este nombramiento le permite reforzar su estructura organizativa. Fuentes de la empresa indicaron que este fichaje busca contribuir a que la compañía `de el salto` al Mercado Continuo. , donde participó `activamente` en su integración financiera y en la transición al Mercado Continuo. Con anterioridad también recaló en el sector de las energías renovables en Abengoa, empresa en la que lideró distintos equipos dentro del área financiera durante de diez años y también tiene cuatro años de experiencia internacional, en los Países Bajos. , y en el que reflejaba una nueva dimensión de compañía, `no solo por sus magnitudes financieras en ascenso sino también por su ambiciosa estrategia de consolidar su diversificación geográfica y tecnológica`. Valencia Plaza, desde cualquier medio Todos los días a primera hora en tu email",valenciaplaza.com,Grenergy sigue preparando el terreno para dar el salto al Mercado Continuo -  Valencia Plaza Lobo.,19,2,2019,0.4000000059604645,4.400000095367432,es
7,2019-02-27,1NKEMIA,"2018 ha sido también un año negro para las salidas a Bolsa. El importe colocado en España ha caído en los últimos 12 meses hasta los 846 millones, según los datos de BME. Se trata del nivel más bajo desde 2013, cuando los efectos de la crisis de deuda soberana en Europa y el rescate a la banca española provocó que los inversores huyesen en masa del mercado español. El valor del papel colocado ese año se situó en los 457 millones de euros. Tan solo tres empresas –Metrovacesa, Árima y Solarpack– se han atrevido a salir a Bolsa en un año en el que el Ibex cae, de momento, un 14,81%. A estas se suman 19 empresas que han optado por el Mercado Alternativo Bursátil (MAB), de las que 11 son socimis. La colocación de mayor relevancia fue la de Metrovacesa, donde BBVA y Santander ingresaron 640 millones por el 25,8% de la sociedad, tras rebajar el precio de colocación y retrasar la fecha de la salida a Bolsa. Desde que se estrenó en el mercado, a 16,5 euros por título, se hunde un 31,6%. También Árima, la socimi del fundador de Axiare, tuvo que rebajar sus pretensiones. Tanto esta socimi como Solarpack colocaron cantidades más reducidas en el mercado: 100 millones de euros cada una. Desde su debut, la primera cae un 8%, mientras que la empresa especializada en energía fotovoltaica suma un 14,5%. Fuera de este cómputo quedan Berkeley y Amrest, puesto que optaron por hacer listings. En ambos casos estas compañías ya cotizaban en otros mercados y su debut en España se basó en un traslado de su cotización desde Australia y Reino Unido, una, y Polonia la otra. No levantaron capital ni vendieron acciones antiguas ni contrataron bancos de inversión. Solo Solarpack sube desde su debut un 14,5%, mientras que Metrovacesa y Árima caen un 31,6% y un 8% respectivamente Aplazadas quedaron las salidas a Bolsa de Cepsa, Haya Real Estate, Vía Célere, Azora y Tendam (la antigua Cortefiel). Esperarán un momento más propicio para su debut, que puede llegar el próximo año. En el caso de Testa, a pesar de que sondeó un estreno en el mercado oficial, finalmente terminó por saltar al MAB. Y ahora ha sido opada por Blackstone. Sin embargo, 2012 y 2013 fueron aún peores. En todo 2012 ninguna empresa debutó en la Bolsa sénior y solo 1Nkemia, Vousse, Ibercom, Carbures y Bionatures optaron por el MAB. Y en 2013 solo lo hizo Liberbank, obligada por las condiciones del rescate y a través de un listing. El importe vendido en Bolsa en ambos ejercicios tan solo alcanzó los 467 millones, computando también los debuts en el MAB. Otro año de sequía fue 2008, cuando, justo antes de la quiebra de Lehman Brothers, solo saltó al mercado la Caja de Ahorros del Mediterráneo, que captó 292 millones, y acabó siendo absorbida por Sabadell. Lo colocado en el presente ejercicio supera los importes colocados en 2012 y 2013. Eso sí, contrasta con la explosión de debuts que vivió el mercado español en 2007 (véase gráfico). El año pasado el importe captado en renta variable por compañías neófitas en Bolsa alcanzó los 3.193 millones con cinco debuts en la Bolsa grande (Prosegur Cash, Neinor, Gestamp, Unicaja y Aedas) y 22 en el MAB, 19 de ellas socimis. Además, MásMóvil firmó el primer salto del mercado alternativo al sénior y Borges pasó a este segmento tras llevar más de 20 años cotizando en el mercado secundario de la Bolsa. También 2016 parecía un año de apetito por las salidas a Bolsa. En el primer trimestre dieron el paso Dominion, Parques Reunidos y Telepizza, además del listing de Coca-Cola European Partners. Sin embargo, el sí del Reino Unido a salir de la Unión Europea en el referéndum del 23 de junio provocó un vuelco en los mercados. Y cerró la ventana de la Bolsa hasta el siguiente ejercicio. La cifra se disparó aún más en 2015 por la influencia de la OPV de Aena. El gestor de aeropuertos protagonizó la mayor salida a Bolsa desde la de Iberdrola Renovables en 2007. El Estado recaudó 4.262 millones por el 49% de la compañía y disparó el total colocado en ese ejercicio hasta los 8.882 millones de euros. También contribuyó a esta cifra otra de las mayores operaciones de los últimos años: la salida a Bolsa de Cellnex, en la que Abertis recaudó 2.140 millones. Así como las de Talgo (570 millones), Saeta Yield (441), Naturhouse (77)y Euskaltel (840). Aunque 2015 fue el mejor año en salidas a Bolsa de la última década, la cifra se queda aún lejos de los máximos marcados antes de la crisis. En 2007 el importe ascendió a los 9.798 millones, máximos históricos. Fue el ejercicio no solo en el que debutó la filial de energía renovable de Iberdrola, sino también Criteria, el holding industrial que controlaba por entonces a La Caixa, por 3.848 millones. Solo estas dos operaciones supusieron la venta de acciones valoradas en 8.325 millones de euros, y a ellas hay que sumar las colocaciones de Clínica Baviera, Renta 4, Laboratorios Rovi, Fluidra, Codere, Almirall, Solaria y Realia.",Simply Wall St,El importe de los debuts en Bolsa cae a su nivel más bajo en cinco años | Mercados | Cinco Días,27,2,2019,0.0,15.5,es
21,2019-04-09,1NKEMIA,"MADRID (EP). y apuesta por los 'PPA' (contratos de compraventa de energía a largo plazo para las plantas de renovables) para el desarrollo de proyectos y crecimiento en España. En una rueda de prensa para presentar los resultados del grupo del año 2018, el consejero delegado de Grenergy, David Ruiz de Andrés, señaló que la compañía `no está obsesionada` con ese salto al Continuo, pero sí que se trata de `un paso natural`. Para ello, ya se está trabajando dentro de la empresa, que supera los 200 millones de euros de capitalización bursátil, en materia de gobierno corporativo y en su consejo de administración y ` . Para afrontar ese paso al Continuo desde el MAB, donde cotiza desde 2015, la compañía productora de energía a partir de renovables y desarrolladora de proyectos fotovoltaicos y eólicos deberá antes aumentar su 'free float', que actualmente se sitúa en torno al 17-18%, hasta un 25%, para lo cual deberá llevar a cabo una `pequeña ampliación de capital o una colocación selectiva`. `Estamos estudiando las dos opciones`, dijo Ruiz de Andrés que, a través de la sociedad Daruan Group Holding, ostenta una participación de más del 75% de la compañía. En lo que respecta a España, el consejero delegado de la compañía consideró que para Grenergy, debido al impulso que se vuelve a dar a las renovables en la transición energética, tras el parón que hubo en los años pasados. Grenergy posee una cartera de proyectos de 2.500 megavatios (MW), diversificada en Latinoamérica (Chile, Argentina, Perú y Colombia), México y España, donde cuenta con un 'pipeline' de 1.000 MW. El plan de negocio del grupo prevé duplicar para 2020 esta cartera de proyectos en desarrollo hasta los 5.000 MW en los distintos mercados en los que tiene presencia. En concreto en España, la compañía ya tiene en fase de desarrollo el proyecto solar de Los Escuderos (Cuenca), de 200 MW y que está previsto que esté finalizado en 2020. Además, tiene otros proyectos en su cartera para desarrollar en 2020-2021 en la Comunidad Valenciana (150 MW), Almería (400 MW), Castilla La-Mancha (200 MW). Así, , con un objetivo de en torno a unos 1.500 MW de esa cartera de 5.000 MW. `Me encantaría que España fuera en torno a un tercio, Chile otro tercio y el resto de Sudamérica otro tercio`, dijo. Asimismo, apostó por los contratos de compraventa de energía a largo plazo ('PPA'), frente al mecanismo de subastas, como mejor herramienta para impulsar el desarrollo de los proyectos. `Vemos un sistema de 'PPA' muy dinámico`, añadió. Grenergy obtuvo un beneficio neto de 13,1 millones de euros en 2018, lo que representa un incremento del 274% con respecto a las ganancias del ejercicio anterior y supone anticipar en un año las previsiones del grupo. ` `, destacó Ruiz de Andrés. Los ingresos de la compañía de renovables en 2018 ascendieron a 55,5 millones de euros, un 16% más, mientras el resultado bruto de explotación (Ebitda) se situó en los 22 millones, casi el triple que en 2017. . Además, el grupo reinvirtió una parte de sus ingresos en impulsar su política de diversificación tecnológica. De este modo, destinó 13,1 millones de euros al desarrollo y construcción de proyectos eólicos en Argentina y en Perú, y otros 13,5 millones en hacer lo propio en parques fotovoltaicos en Chile, su principal mercado en Latinoamérica, donde es la compañía con más parques conectados a la red con 20 plantas conectadas y nueve en construcción. Valencia Plaza, desde cualquier medio Todos los días a primera hora en tu email",valenciaplaza.com,Grenergy prevé que la junta de junio apruebe el salto al Mercado Continuo -  Valencia Plaza Lobo.,9,4,2019,0.10000000149011612,8.5,es
16,2019-05-28,1NKEMIA,"VALÈNCIA (VP/EP). y lista para su actividad en el primer trimestre de 2020, según ha informado la compañía en un comunicado. , la construcción la lleva a cabo un consorcio formado por Acciona Industrial e Imasa Ingeniería y Proyectos sobre una parcela de 103.000 metros cuadrados y con una capacidad estimada de 50 megavatios, energía equivalente para abastecer a una población de más de 250.000 habitantes. al año recogidos en bosques certificados por los sistemas FSC o PEFC y situados en un ratio de 100 kilómetros alrededor de las instalaciones. La planta, , incorpora las últimas novedades tecnológicas aplicadas a infraestructuras de biomasa para generación eléctrica, con un nivel reducido de emisiones de dióxido de carbono. Para el , la planta es uno de los `proyectos de energía renovable más importantes en desarrollo en Europa y España, no solo por su tamaño y capacidad, también por la tecnología incorporada. Es uno de los grandes hitos en energía verde de todo el Sur de Europa hasta el punto de haber obtenido el premio IJGlobal como Mejor Proyecto Europeo de Biomasa del año 2018`. Valencia Plaza, desde cualquier medio Todos los días a primera hora en tu email",valenciaplaza.com,"Greenalia, cotizada del MAB, completa el 80% de la segunda planta de biomasa más grande de España -  Valencia Plaza Lobo.",28,5,2019,0.20000000298023224,3.200000047683716,es
13,2019-07-10,1NKEMIA,"BARCELONA (EP). , excluyendo las acciones que ya posee, que equivalen al 39,76%, ha informado AB-Biotics este miércoles en un comunicado. La oferta va dirigida a 7,58 millones de acciones de la compañía, con una valoración de cinco euros por acción, lo que supone una prima del 19% sobre la cotización media de los últimos seis meses y un desembolso total de 37,91 millones, y por tanto una valoración total de la compañía de 63 millones. en el que cotiza desde 2010. Pretende alcanzar el control de la sociedad, contribuir a un mayor desarrollo de la misma y lograr su consolidación dentro del grupo, que entró como accionista de referencia de AB-Biotics en marzo de 2018 tras adquirir el 26,86% del capital. En junio de este año la empresa japonesa adquirió el 39,76% del capital de AB-Biotics y el plazo de aceptación de la oferta empieza a contar desde este miércoles y vence el viernes 16 de agosto. Valencia Plaza, desde cualquier medio Todos los días a primera hora en tu email",valenciaplaza.com,"AB-Biotics, cotizada del MAB, otra que apunta a dejar la bolsa -  Valencia Plaza Lobo.",10,7,2019,0.0,3.0,es
12,2019-07-15,1NKEMIA,1 Min Read July 16 (Reuters) - INKEMIA IUCT GROUP SA: * SAID ON MONDAY ITS UNIT INSTITUT UNIV. DE CIENCIA TECNOLOGIA SA (IUCT) HAD FILED FOR INSOLVENCY PROCEEDINGS SINCE IT WAS NOT POSSIBLE TO REACH AN AGREEMENT WITH CREDITORS WITHIN TIME LIMITS OF PRE-INSOLVENCY PROCEDURE Source text:  Further company coverage: (Gdynia Newsroom),Reuters,BRIEF-1nKemia Unit Files For Insolvency Proceedings - Reuters,15,7,2019,-0.4000000059604645,0.800000011920929,en
