{
    "https://gaceta.es/opinion/eurona-wireless-atentos-manana-avance-resultados-previsiones-31032014-2339-20140331-0000/": {
        "title": "Eurona Wireless Atentos mañana tras el avance de resultados y previsiones.",
        "new": "Muy Sres. Nuestros: En cumplimiento con lo dispuesto en la Circular 9/2010 del MAB sobre información a suministrar por empresas en expansión incorporadas a negociación en el MAB, por la presente se pone en conocimiento la siguiente información relativa a EURONA WIRELESS TELECOM, S.A. (EURONA). EURONA, en aras a mantener la máxima transparencia con la comunidad inversora y el mercado, hace pública la información referente a las previsiones del ejercicio 2013, así como los datos previstos de cierre del ejercicio pasado que, aun no habiendo finalizado el proceso de auditoría, pueden considerarse prácticamente definitivos a la espera del cierre final de dicho proceso. En línea con nuestra política de transparencia, en el presente documento Eurona presenta unas desviaciones sobre los resultados previstos inicialmente en el DAR de la última ampliación de capital, de fecha diciembre de 2013, así como los motivos y consecuencias. En líneas generales, y como resumen del ejercicio 2013, podemos decir que la compañía ha cumplido con sus principales objetivos: 1. Crecer en ventas netas para alcanzar la masa crítica de volumen de negocio para poder obtener resultados positivos. Este hecho nos permitirá en el 2014 consolidar nuestra posición y cuenta de explotación en España. 2. Se ha orientado hacia la calidad y atención al cliente, haciendo un gran esfuerzo inversor en procesos y sistemas que permiten mejorar nuestra eficiencia el en proceso de negocio. 3. Eurona ha iniciado con fuerza en el segundo semestre del año el proceso de internacionalización, originando una atención de recursos importantes en materia de management y cash flow, con el fin de iniciar el 2014 con fuerza en nuestras principales plazas, con el objetivo de que las filiales empiecen a aportar cash flow al grupo. 4. El Comité de Auditoría del Consejo de Administración ha optado por afrontar la crisis económica de España saneando el balance mediante la provisión de 1.000 miles de euros en materia deterioro de la cuenta de Cliente pendientes de cobrar. En línea con este punto, la compañía ha conseguido sanear la partida de clientes y dejarla al día en el ejercicio 2013. Por otro lado, cabe destacar el esfuerzo en diseñar e implementar un proceso muy exhaustivo y riguroso de recuperación de deuda y reducción de impagos que ha permitido mejorar en más de dos puntos y medio porcentuales el estado de impagos de la compañía. Como hecho relevante de finales del ejercicio cabe destacar la compra de Kubi Wireless, operador líder en España en la gestión de Wifi Horspots indoor, destacando las más de 40.000 habitaciones hoteleras cubiertas, los 27 aeropuertos nacionales, recintos feriales y centros comerciales de grandes dimensiones. Esta adquisición, además de darnos acceso a un sector nuevo para Eurona con enorme crecimiento y perspectivas en las telecomunicaciones, nos ofrece la oportunidad de entrar en países como México y República Dominicana, entre otros, con fuerza e imagen de calidad establecida. Por otro lado, y de cara a la eficiencia del proceso de negocio de Eurona, la integración efectiva de las dos organizaciones en los primeros meses del 2014 nos permitirá desarrollar nuestras actividades de forma única, optimizando recursos financieros y de gestión, generando ahorros con economías de escala y un crecimiento muy enfocado. Explicación breve de la evolución de los resultados en el 2013: En la propia explicación del plan de negocio, se ha diferenciado entre el negocio tradicional (business as usual) y los nuevos negocios tal y como se presentaba en el documento DAR ya comentado de la última ampliación de capital 2013. Destacamos la buena evolución de las ventas de la sociedad en su negocio tradicional (BAU) alcanzando una cifra de 11.103 miles de euros, en línea con lo previsto en el presupuesto de la sociedad (11.127 miles de euros). El crecimiento de las ventas, superior a un 55 % respecto al ejercicio 2012 (7.185 miles de euros), se ha basado en una consolidación del mercado satelital en España y, en menor medida, en una mayor penetración en el mercado de ancho de banda inalámbrico (Fixed Wireless) sobre infraestructura propia ya desplegada. El Margen Bruto ha experimentado una ligera caída, en línea con el comportamiento del mix de ventas, donde el servicio de ancho de banda EuronaSat ha tenido un mejor comportamiento de lo esperado respecto a las ventas de servicio Fixed Wireless. Cabe destacar, no obstante, que la desviación que se refleja en el Coste de Ventas de la sociedad viene provocada principalmente por el incremento del coste para la provisión de servicio que presta Eurona, el crecimiento realizado por la sociedad en aras a proveer a un mayor número de clientes su servicio obliga a unos costes iniciales superiores que se verán rentabilizados a medida que dicho número de clientes aumente; por tanto, durante los últimos meses del año Eurona ha llevado a cabo una adecuación de su capacidad de servicio sobre una base de clientes futura. Un 63% por ciento del margen bruto ya podemos considerarlo un entorno estable, donde asumimos una posición de mejora en eficiencia y en optimización de la red y operación de red que poco a poco se irá trasladando al resultado y mejorando el margen. En materia de Gastos Generales, Eurona ha sufrido una desviación significativa es la de Gastos Generales y otros gastos de explotación vs lo previsto como consecuencia de la voluntad de expansión de la compañía y los costes relacionados con los servicios exteriores a tal efecto; tal y como hemos comentado en el inicio de este documento, el Grupo está presente en Italia, Reino Unido, Irlanda y Perú, principalmente, y este segundo semestre de 2013 ha significado la intensificación de nuestros recursos y objetivos estratégicos de la compañía con el objeto de conseguir una contribución efectiva cada vez mayor de la cifra de negocio internacional y cash flow al Grupo en el 2014 y sucesivos. El EBITDA ha alcanzado una cifra de 1,198 miles de euros vs los 2,138 miles de euros previstos, debido fundamentalmente a los gastos originados por el Coste de Adquisición de Cliente (SAC) que, a pesar de haberlo reducido, el número de altas ha sido mayor al esperado para poder asumir un crecimiento neto en ventas. Cabe destacar que el EBITDA antes de SAC lo hemos estimado en 2.272 miles de euros. En aras a mantener una postura conservadora la Sociedad ha decidido llevar a cabo una provisión que se refleja en el epígrafe de amortizaciones y provisiones por importe de 994 miles de euros para de esta manera cubrir el posible deterioro futuro de los saldos a cobrar con clientes por impago de la sociedad. La situación económica actual y la postura conservadora del Consejo de Administración, a través de su Comisión de Auditoría, nos ha permitido reforzar nuestra postura de apostar por un balance saneado y cubrir los riesgos futuros a los que se enfrenta la economía española. Ello no significa, no obstante, que se descarte por ello la recuperabilidad de dichos saldos, para lo que la Sociedad está trabajando muy duro y eficientemente en procesos muy dedicados de recuperación de deuda de clientes y reducción de impagos. Por ello, con esta elevada provisión inexistente en las previsiones anteriores, se pretende apostar por esta posición conservadora de la sociedad, que sin duda revertirá positivamente en el futuro. Para finalizar, la sociedad Kubi Wireless, propiedad al 100% de Eurona, se prevé cumpla con los objetivos marcados alcanzando una cifra de venta de 7.933 miles de euros vs los 7.683 miles de euros previstos en diciembre 2013, superando por tanto la cifra prevista, y un EBITDA de 1.711 miles de euros vs los 1.728 miles de euros previstos, estando por tanto en línea con los objetivos marcados por la sociedad. La cifra de negocios agregada a nivel nacional alcanzaría, de ese modo, los 19.036 miles de euros y el EBITDA resultante sería de 2.909 miles de euros. Las desviaciones comentadas, no se estima vayan a tener incidencia en las previsiones para el ejercicio 2014 y sucesivos incluidas en el DAR de noviembre 2013. Todo lo cual ponemos en su conocimiento a los efectos oportunos, al tiempo que quedamos a su disposición para cuantas aclaraciones requieran. Conclusión. La compra de Kubi Wireless es una magnifica operación para la compañía tal como se destaca, de no ser por la provisión de cerca de 1 millón de € se habrían cumplido los objetivos. Cabe destacar también el mayor numero de clientes captados que asegura un buen 2014 , esto ha lastrado las cuentas en 2013, algo que por otro lado ya estaba descontado, pero que invita a pensar que en 2014 las cosas pueden ir mejor que las previsiones facilitadas por la compañía en noviembre de 2013. Por tanto nostros pensamos que son buenas de cara al futuro , lo que augura un gran crecimiento de la compañía.  Kubi Wireless parece la joya de la corona pues abre puertas a mercados con gran potencial de crecimiento. Por técnico El grafico sigue un poco como en días anteriores, el soporte clave de 5,32€ continua siendo respetado y a corto plazo podría iniciar de nuevo un impulso alcista una vez termine la consolidación. Para corto plazo el 1º objetivo lo tendríamos en 5,85€, su superación implicaría el inicio de un nuevo tramo alcista ya que dejaría al valor en subida libre. Por abajo el soporte de 5,30€ es clave, mientras no cierre por debajo, las posibilidades de que continúe al alza siguen intactas. Mañana el valor debería reaccionar bien a estos datos y al menos buscar atacar máximos en 5,82€.",
        "date": "31 mar. 2014",
        "source": "Gaceta opiniones",
        "keyword": "EURONA WIRELESS TELECOM SA"
    },
    "https://www.elconfidencial.com/empresas/2015-08-04/eurona-el-gowex-bueno-lanza-una-emision-de-bonos-de-15-millones-en-luxemburgo_954415/": {
        "title": "Eurona, el Gowex bueno, lanza una emisión de bonos de 15 millones en Luxemburgo",
        "new": "Después de un año analizando sus posibilidades, Eurona Wireless Telecom ha dado oficialmente luz verde a su esperada emisión de bonos. La operadora de internet, que cotiza en el MAB –Mercado Alternativo Bursátil–, ha contratado a Auriga para colocar en el mercado deuda por importe de , según ha podido confirmar este medio, importe superior a los 12 millones que se había estimado en el pasado. La emisión, que se llevará a cabo en , se ha estructurado a , con vencimiento en 2022, un cupón ( ) anual del , y un  , calificación que lo sitúa al nivel de lo que popularmente se conoce como . La inversión mínima requerida son 100.000 euros y ha sido la plaza elegida para llevar a cabo la colocación, que aportará a la empresa parte de los fondos necesarios para llevar a cabo su plan estratégico. Eurona es una operadora de telecomunicaciones cuya estrategia de negocio se basa en hacer llegar internet a aquellos sitios donde no están presentes las grandes compañías del sector, como zonas suburbanas con entre 10.000-15.000 habitantes, donde sólo tiene acceso a la red el 24% de la población, así como áreas no urbanas, rurales y remotas, donde el acceso a internet se mueve entre el 8% y el 4%. Aunque el , Eurona también opera en Reino Unido, Italia, Irlanda, Colombia, Perú, Chile y el Caribe, y tiene como próximo objetivo entrar en Estados Unidos a través de Miami. Actualmente, la estrategia de la compañía pasa por crecer en 4G y alcanzar los en 2018, con un margen de ebitda (beneficio bruto operativo) del 30%. Esta emisión llega diez meses después de que se conociera la . Fue el pasado noviembre cuando la firma de inversión, a través del fondo , se convirtió en el primer accionista de la compañía, con el 9,88% de los títulos. Los miembros del consejo de administración se reparten otro 8,24%; mientras que el (capital que cotiza libremente en bolsa) y un 9,2% está en manos de pequeños inversores estables. Aunque el modelo de negocio de Eurona se ha centrado tradicionalmente en llevar internet a zonas remotas o poco cubiertas, la compañía dio un giro estratégico en octubre de 2013, cuando , actividad que le dio entrada al mercado del wifi público en grandes clientes como Fira de Barcelona o los aeropuertos de Aena. En los próximos meses, el objetivo de Eurona es completar su fusión con Kubi. Con una , Eurona saltó al MAB hace cinco años y, desde entonces, se ha consolidado como una de las principales empresas de este mercado, que hace un año se vio seriamente sacudido por el . Pocos meses antes, en marzo de 2014, los títulos de la compañía marcaron su por acción, dentro de la burbuja que se pinchó con Gowex. Ayer, sus títulos cerraron en 2,58 euros, tras acabar la sesión con un recorte del 0,77%. Dentro de la política de profesionalización de la compañía puesta actualmente en marcha, la empresa presidida por y cuyo consejero delegado es prevé reducir de 4 a 2 el número de consejeros ejecutivos, dar entrada a , reducir de 10 a 7 el número de miembros del máximo órgano de administración y reforzar el comité de Auditoría y Remuneraciones, así como crear uno de Estrategia. En 2014, las ventas del Grupo Eurona se incrementaron un 42%, hasta 27,1 millones, con un ebtida de 2,6 millones. El objetivo de la compañía es llegar a 1,2 millones de hogares y generar un ebitda acumulado de 80 millones de euros durante los próximos cuatro ejercicios fiscales, apostando al mismo tiempo por crecer en sus cuatro líneas de negocio, un plan estratégico que requiere un incremento de capital de 27,5 millones de euros, cifra que prevé alcanzar con la citada emisión de bonos por importe de 15 millones, y con . Los fondos que obtenga con la emisión de bonos se destinarán a su plan de crecimiento en , estimada en 6,3 millones de euros; a desarrollar un plataforma de ; a invertir en aumentar el portfolio de clientes en móvil (2,2 millones); a potenciar el acceso a internet vía , lo que exigirá otros 1,2 millones; a ligada a la compañía de Kubi (2,3 millones), y a cubrir las necesidades financieras propias del negocio, especialmente las relacionadas con el crecimiento internacional (3 millones de euros).",
        "date": "3 ago. 2015",
        "source": "El Confidencial",
        "keyword": "EURONA WIRELESS TELECOM SA"
    },
    "https://gaceta.es/opinion/eurona-novedades-avanza-cifras-1o-trimestre-2014-despeja-dudas-12062014-1049-20140612-0000/": {
        "title": "EURONA novedades!! avanza cifras del 1º trimestre 2014 y despeja dudas",
        "new": "Los resultados de este primer trimestre muestran una mejoría en ventas, de más de 2.850 miles de euros, de acuerdo con lo esperado por la compañía para alcanzar el presupuesto del ejercicio 2014. El  comportamiento  positivo  de  las  ventas  es  moderado  según  nuestras previsiones hasta  mediados  de  año,  cuando  la  implementación  del  plan comercial tiene un impacto relevante en el comportamiento de las ventas. El  resultado  se ha visto beneficiado igualmente por la política de mejora de atención al cliente, mediante un mejor comportamiento de las acciones orientadas a la  recuperación  de  clientes. Sigue  priorizándose la venta  de Eurona  Sat,  añadiendo  un  crecimiento  en  nuevas  zonas  y  diversificando geográficamente la actividad de la empresa. El crecimiento de las ventas ha experimentado un incremento superior al 46% respecto al mismo período del ejercicio pasado. El margen bruto (superior al 44%) se mantiene en niveles normales con un incremento del producto satelital en nuestro mercado. Este incremento del Margen Bruto del Negocio se debe principalmente al equilibrio en el Mix Productos comercializados por la compañía, así como mejores precios acordados con nuestros proveedores dado el incremento en los volúmenes de consumo. Tal y como se puede observar, cabe destacar una disminución del11% de los gastos de personal respecto al mismo periodo de 2013, debido a la mayor eficiencia en los recursos y al plan de mejora de los procesos, mediante la externalización de determinadas actividades dentro del proceso de operación de cliente. Se aprecia igualmente una disminución del 2% en los Otros Gastos de Explotación de la actividad respecto a los ingresos, debido principalmente al plan de control de gestión y control interno Respecto a los resultados de la compañía cabe destacar el cumplimiento ç presupuestado y resaltamos una diferencia de EBITDA superior a 300 miles de euros respecto al ejercicio pasado en el mismo período, donde pasamos de unas pérdidas de 200 miles de euros, a un EBITDA positivo de 112 miles de euros, en línea con las expectativas de EBITDA a final de año por importe de 3.600 miles de euros positivos. De igual forma, los resultados antes de impuestos se han reducido en más de la mitad, hasta los 329 miles de euros negativos, igualmente, en línea con lo esperado y nuestras previsiones para finales de año. Reducción de deuda. Dentro del plan de reducción de deuda del grupo, Eurona ha reducido su deuda en este trimestre por importe superior a 380 miles de € 2.4.- Cuantificación de previsiones o estimaciones de carácter numérico sobre  ingresos  y  costes  futuros  (ingresos  o  ventas,  costes,  gastos generales,  gastos  financieros,  amortizaciones  y  beneficios  antes  de impuestos) Previsiones 2014. Las previsiones para el ejercicio 2014 se corresponden con las presentadas en  el  Hecho  Relevante  de  fecha  2  de  mayo  de  2014  y  en  síntesis  se muestran en los siguientes cuadros: Las  principales  diferencias  entre  el  presupuesto  2014  y  las  previsiones incluidas  en  el  Documento  de  Ampliación  Reducido  de  noviembre  de 2013, vienen dadas por: a) El efecto del cierre de 2013 y la aplicación del criterio de prudencia, que  ha  llevado  a  incluir  en  el  presupuesto  una  “previsión”  para cubrir posible morosidad por importe de 500.000€. b) El efecto del cambio del mix de producto previsto, con una mayor presencia del producto “satélite” que aporta un menor margen, tal y como se puso de manifiesto en el Hecho Relevante de fecha 31 de marzo de 2014. Plan de negocio 2015/2016 Las previsiones de los ejercicios 2015 y 2016 están siendo revisadas por la Dirección de la Compañía a raíz del acuerdo estratégico para el suministro de tecnología 4G y vendor finance con TELRAD NETWORKS, que ha sido comunicado en el Hecho Relevante de fecha 27 de mayo de 2014, y que, en síntesis permite a Eurona Telecom completar finalmente, con la licencia de 3,5 GHz, el lanzamiento del gran proyecto “4G en casa” en todo el territorio nacional, mediante el apoyo de la red de distribuidores locales. ¿Por que se hace la ampliación de capital? Como  consecuencia,  el  capital  social  de  EURONA  tras  la  ampliación  de capital  no  dineraria  objeto  del  presente  documento  de  ampliación reducido,  es  de  Veinte    Millones  Setecientos  Cincuenta    y  un  mil Novecientos  Treinta  Cinco  euros  (20.751.935€)  representado  por 20.751.935 acciones de 1 euro de nominal cada una. 1. Ampliación por aportación no dineraria  La ampliación de capital con cargo a aportación no dineraria contemplada en este Documento se corresponde con el contrato de canje de valores de 16  de  septiembre  de  2013  y  a  las  adhesiones  y  operaciones  en consecuencia, en  cuya virtud, en  síntesis, los  socios  titulares  del  100  por 100  de  las  participaciones  sociales  de  KUBI WIRELESS,  S.L.  (en  adelante, KUBI) se obligaron a transmitir sus participaciones a EURONA a cambio de que ésta satisficiese su valor, del siguiente modo:– una parte de ese valor (en concreto, el 25 por 100) en dinero, y – la parte restante (en concreto, el 75 por 100) en acciones propias de EURONA valoradas a 1,74 euros. EURONA solicitó ante el Registro Mercantil de Barcelona que procediese a la  designación  de  un  experto  independiente  para  la  elaboración  de  un informe  sobre la aportación no dineraria, en los  términos y a los efectos previstos en el artículo 67, y asimismo un informe sobre la valoración de la supresión del derecho de suscripción preferente en los términos previstos en el artículo 308, ambos del Real Decreto Legislativo 1/2010 del mes de julio por el que se aprueba el Texto Refundido de la Ley de Sociedades de Capital. El  Registrador  Mercantil  de  Barcelona,  don  Luis  Fernández  del  Pozo nombró  en  el  expediente  A5084/13  a Dña.  María  R.  Alemany  Anglada como experta independiente para la elaboración de dichos informes. La experto independiente concluyó favorablemente ambos informes, que fueron  emitidos  el  10  de  enero  de  2014.  Por  un  lado  consideró  que  la valoración  efectuada  por  los  Administradores  en  relación  de  las participaciones  representativas del capital social de KUBI era  razonable y Documento de Ampliación Reducido al MAB-EE de EURONA WIRELESS TELECOM, S.A. que se correspondían, al menos, con el número, valor nominal y prima de emisión  de las acciones a emitir  por EURONA  como  contrapartida. Y  por otro,  consideró  necesaria  la  exclusión  del  derecho  de  suscripción preferente.3.2.- Suscripción de las acciones de nueva emisión Tal y como consta en el apartado 2.1., del presente Documento, así como en  el  punto  3.1.,  la  Junta  General  acordó  la  supresión  del  derecho  de suscripción preferente a efectos de que las ampliaciones de capital, fueran suscritas por: 1.-  DON  LUIS  MALAGARRIGA  SANTAMARÍA,  suscribe    521.229 acciones. 2.- DON CARLOS RIOPEDRE SAURA, suscribe 125.544  acciones. 3.-  INVERSIONS  EN  INNOVACIO  A  CATALUNYA,  F.C.R.,  suscribe 487.789  acciones. 4.- BITTERFONTEIN, B.V., suscribe 470.374 acciones 5.- GRUPO RODANIA, S.L., suscribe 84.102 acciones 6.- SOCIEDAD INDUSTRIAL  DE  APLICACIONES,  S.A.,  suscribe  12.699  acciones. 7.- BUTSIR, S.L., suscribe 89.560 acciones. 8.- DON JOAQUÍN FALGUERAS MIR, suscribe 6.127 acciones. 9.-  DON  FRANCISCO  DE  BORJA  TEY  DUCLÓS,  suscribe  75.000 acciones. 10.- QUAN CRECIMIENTO, S.L., suscribe25.000 acciones. 11.- DON JAUME OLIVER AYMERICH, suscribe80.000  acciones. 12.-  DON  JORGE  CALSAMIGLIA  BLANCAFORT,  suscribe50.000  acciones. 13.- DON ANTONIO MASSAGUÉ ROIG, suscribe20.000 acciones. 14.- PARTISU XXI GROUP, S.L. suscribe31.259 acciones. 15.- MONSAX, S.L., suscribe150.115 acciones. 16.- ARBRE CINC, S.L., suscribe 30.000 acciones. Asimismo, se acordó efectuar la correspondiente solicitud al MAB-EE, para la incorporación de las acciones resultantes de las Ampliaciones de Capital efectuadas, al igual que lo están las demás acciones de la compañía. El día 3 de abril de 2014 el señor D. Joaquín Falgueras Mir y las sociedades Grupo Rodania S.L.; Butsir, S.L.; Sociedad Industrial de Aplicaciones, S.A.; procedieron  a  vender  las  acciones  adjudicadas  por  suscripción  de  la ampliación de capital no dineraria acordada el 28 de marzo de 2014 a los siguientes adquirentes: 1.-   ARBRE CINC, S.L., adquiere 31.300 acciones. 2.-  DON  BUENAVENTURA  COROLEU  LLETGET,  adquiere  50.000 acciones. 3.-   FAMINVEST 2002, S.L., adquiere 35.000 acciones. 4.-   INVERSIONES JOMARTAU, S.L. adquiere 76.188 acciones. Con esta operación los transmitentes declaran que EURONA ha cumplido en su integridad el contrato de canje de valores de 16 de septiembre de 2013 y, la Compañía cancela el gravamen o restricción sobre las acciones transmitidas que sí rige para las acciones entregadas y no transmitidas, y cuyo detalle se presenta en el punto 4.5 Conclusiones 1_La empresa evoluciona bien aumentando en mas de un 40% sus ventas durante este 1º trimestre tal como indicaban los datos facilitados por la misma hasta el día de hoy. 2_Siguen manteniendo que desde la compañía se esta preparando un nuevo plan estratégico 2015/2016 en el que recogerán los nuevos acuerdos alcanzados 3_ El revuelo formado por la ampliación de capital NO DINERARIA queda totalmente aclarado, un experto independiente lo decidió así y además esta ampliación estaba comprometida por Eurona en septiembre de 2013, por tanto era conocido de antemano. Seguimos diciendo que por el tamaño de la misma es irrelevante. 4_ Estos datos no hacen mas que avalar la teoría de que esta compañía debería estar cotizando por encima de 6€ y que es a día de hoy la empresa con mayor potencial de % de las que cotizan en modo continuo dentro del MAB NOTA: El potencial de NEURON BIO es superior siempre que consiga con sus patentes algo que comercializar en un futuro.  Este potencial esta basado en los datos que tenemos a día de hoy y comparado con  CARBURES, EBIOSS, IBERCOM, GOWEX, NEURON  Cumplir con los objetivos es fundamental en toda compañía y ello genera confianza, Eurona desde enero de este año no nos ha decepcionado e incluso esta mejorando las previsiones que teníamos entonces.",
        "date": "12 jun. 2014",
        "source": "Gaceta opiniones",
        "keyword": "EURONA WIRELESS TELECOM SA"
    },
    "https://www.elmundo.es/comunidad-valenciana/2015/08/09/55c639ea22601d807b8b4574.html": {
        "title": "Alfonso Rus dio al hermano de Esteban González Pons un contrato de 14 millones para una red 'wifi' | Comunidad Valenciana | EL MUNDO",
        "new": "Una investigación de la Agencia Tributaria ha sacado a la luz la relación entre Alfonso Rus, la familia González Pons y la trama Púnica. Según la información de la que dispone EL MUNDO, Hacienda ha detectado un desfase presupuestario de 5,7 millones de euros en el contrato que la Diputación de Valencia aprobó para crear una red que asegure a todos los municipios de la provincia el acceso a internet y su conexión por medio del sistema wifi y que debería estar ya casi al 100% ejecutado. En 2009, el ex presidente Alfonso Rus dio luz verde al inicio del expediente encaminado a la contratación de dicho servicio, que se enmarcó en el plan Sona la Dipu, Valencia Provincia Wifi. Fijó un presupuesto máximo de 14 millones de euros y, pese a que la previsión era que en 2014 el servicio llegase a todos los municipios de la provincia, la inspección ha acreditado que la inversión ha quedado reducida a los 8,3 millones, según esta documentación. Rus adjudicó este servicio a Indra, una sociedad manchada por Púnica, y los detalles del suministro se negociaron con el hermano del eurodiputado del PP Esteban González Pons, Rafael González Pons, responsable de su delegación de Valencia. Es el directivo que dirige su desarrollo de negocio en la provincia y se encarga de la relación con las Administraciones, o al menos lo era en esas fechas. El plan Sona la Dipu, Valencia Provincia Wifi es uno de esos programas que Rus se sacó de la chistera en su primera legislatura como presidente sin informes técnicos que justificaran la inversión. Con un presupuesto de 14 millones de euros, el proyecto fue pionero para el suministro, instalación, configuración y explotación «de la mayor red inalámbrica de Europa». Rus quería que los ciudadanos de los 265 municipios de la provincia tuvieran un mejor acceso a la sociedad de la información, costase lo que costase, logrando así una «provincia gigaconectada». Pero parece que fracasó. Según se desprende de la inspección de Hacienda, en 2010 la Diputación de Valencia firmó un contrato de colaboración con una empresa privada -en un primer momento con la UTE Indra Sistemas SA-Cesser Informática y Organización SL y posteriormente, en junio de 2012, sólo con la empresa vinculada al hermano de González Pons- mediante el cual el contratista tenía que instalar una red wifi en la provincia de Valencia, cediéndole la explotación de la misma durante 10 años prorrogables por dos periodos de 5 años cada uno, hasta completar un total de 20 años. Un acuerdo ventajoso, muy ventajoso, para la adjudicataria, pues el contrato cede la explotación de la banda ancha sobrante para que Indra pueda ofrecer a particulares de las distintas poblaciones el servicio wifi mediante el pago del mismo. Indra sólo tuvo que comprometerse a transferir a la Diputación los activos cuando finalizase el contrato. Indra, por su cuenta, dio a Eurona Wireless Telecom SA el contrato para explotar la capacidad excedentaria existente en la red. Esta sociedad abona un canon a la empresa del hermano de González Pons y fue la propia Indra la que redactó el pliego de condiciones y adjudicó el servicio sin aparente control público. Según los datos a los que ha tenido acceso esta redacción, sólo entre los años 2013 y 2014 Eurona ganó 598.433 euros suministrando wifi e Indra se llevó su correspondiente comisión. Según la investigación de Hacienda, Indra no ha facilitado la información sobre los costes de las infraestructuras asignados a cada uno de los emplazamientos, ayuntamientos y telecentros. Tampoco ha aportado el certificado final de obra o acta de entrega a la Diputación aunque sí ha remitido certificaciones de las infraestructuras realizadas.Según fuentes de la Diputación, este proyecto se puso en marcha para llevar la red inalámbrica a zonas rurales con dificultades de conexión. Con el paso del tiempo, sin embargo, los servicios se ampliaron, había que llegar a todos los municipios de la provincia y el contrato dejó de ser rentable. Sólo Indra, que llevó la voz cantante en las negociaciones, se interesó por él. Según estas fuentes, el hermano de González Pons era el que negoció las condiciones y el que se dirigía a los funcionarios para resolver cuestiones del contrato. El sumario de Púnica, la trama que saltó de las instituciones madrileñas a las valencianas, sitúa a Indra en el epicentro del supuesto fraude. Según refleja la declaración del supuesto 'conseguidor', Alejandro De Pedro, administrador de una empresa de posicionamiento on line en Valencia, Indra le entregó un sobre con 10.000 euros que corresponderían a una deuda de la Comunidad de Madrid con la red. Según su propia declaración, el dinero se lo escondieron debajo del asiento de un coche y se lo debía la Comunidad de Madrid. Le dijeron «coge el dinero y vete». Salvador Victoria, ex número dos de la Comunidad de Madrid, habría llamado personalmente a Indra en septiembre de 2014, según los pinchazos policiales, para que esta empresa hiciera un pago en B a De Pedro. Es el mismo patrón que la trama siguió con el PP de Gandía y el ex alcalde Arturo Torró. El familiar de González Pons también ha asumido otros contratos de la Generalitat, en concreto de la Conselleria de Sanidad, mediante acuerdos de sociedades investigadas en el caso Cooperación, una trama que mantiene en prisión al ex conseller Rafael Blasco.",
        "date": "9 ago. 2015",
        "source": "El Mundo",
        "keyword": "EURONA WIRELESS TELECOM SA"
    }
}