{
    "https://www.lne.es/economia/2011/11/19/gam-adelgaza-consejo-suprime-puestos-directivos-reducir-costes-perdidas/1158992.html": {
        "title": "GAM adelgaza el consejo y suprime puestos directivos para reducir costes y pérdidas - La Nueva España",
        "new": "Oviedo, Javier CUARTAS La compañía asturiana General de Alquiler de Maquinaria (GAM) ha aprobado una reducción de su consejo de administración y la supresión de la figura de director general corporativo. El día 31 de diciembre causará baja el consejero y director general, Carlos Fernández de Araoz, quien se incorporó a la sociedad en 2008. Otros cuatro consejeros (BBK, Héctor Fabián Gómez-Sainz, Ángel Corona y QMC) han renunciado a seguir en el máximo órgano de la compañía. La empresa propondrá a su junta general suprimir estos cinco cargos, con lo que el consejo se reducirá de 14 a 9 puestos. También cesaron en la compañía otros dos directivos. Este adelgazamiento de su estructura orgánica y de su cúpula directiva, que se suma a otros ajustes que viene acometiendo la sociedad para frenar sus pérdidas y costes operativos, se inserta en la negociación que está llevando a cabo la compañía con sus bancos acreedores para llegar a un acuerdo de reestructuración de su elevado endeudamiento que permita garantizar su viabilidad. Los accionistas que renuncian para reducir el consejo no prevén desinvertir, y lo hicieron de forma consensuada, dijeron algunas fuentes. Gómez-Sainz es el segundo mayor accionista (tras el presidente, Pedro Luis Fernández) y QMC es un fondo vinculado a las sociedades Nmas1 y Dinamia, que contribuyeron al lanzamiento de la compañía y su salida a Bolsa. Las cajas siguen representadas por Liberbank y Banca Cívica. Para sustituir a Fernández de Araoz, GAM ha creado cinco direcciones generales de área, promocionando para ello a Antonio Trelles, Rosa Naranjo y Ana Jorge, Ricardo López, Elsa Bermúdez y Luis Turiel, y Antonio Sánchez.",
        "date": "18 nov. 2011",
        "source": "La Nueva España",
        "keyword": "GENERAL DE ALQUILER DE MAQUINARIA SA"
    },
    "https://www.elcomercio.es/v/20111120/economia/momento-critico-para-grupo-20111120.html": {
        "title": "El momento más crítico para el grupo GAM | El Comercio",
        "new": "General de Alquiler de Maquinaria (GAM) está en el momento más crítico de su breve historia como empresa. Constituida en 2003 por la fusión de la asturiana Alquioviedo con las sociedades Aldaiturriaga (País Vasco, Madrid y Levante) y TCabrera (Andalucía), el grupo presidido por Pedro Luis Fernández negocia actualmente un nuevo acuerdo con la banca para renegociar nuevos plazos de pago de su millonaria deuda y garantizar su actividad futura. Esa negociación, que la compañía espera tener cerrada con acuerdo a mediados del mes próximo, es clave para que GAM logre plazos de pago que se ajusten a su capacidad de generación de recursos, pues su situación económica actual se lo impide. En febrero el grupo ya había acordado un nuevo calendario de repago de su deuda con 19 entidades bancarias para aplazar 118 millones de euros del principal. Entonces se comprometía a liquidar 47,9 millones este ejercicio y 58,6 el próximo. Pero esta misma semana, un día antes de presentar resultados trimestrales, la compañía reconocía que le era imposible cumplir sus obligaciones y anunciaba que suspendía los pagos de la deuda hasta finales de año, tras cerrar un acuerdo con sus trece principales entidades acreedoras representativas del 81,9% de su deuda. Adicionalmente, esas entidades le inyectaban liquidez por importe de 5 millones. GAM, según sus últimos datos públicos, tiene una deuda financiera neta de 455,7 millones de euros, una cifra astronómica para una empresa cuyo principal mercado, el sector de la construcción, se desplomó a partir del cuarto trimestre de 2008. GAM, en buena medida, es una de las empresas vinculadas a la actividad constructora más perjudicada por la crisis de este sector, una situación que se ha agravado tras los ajustes y recortes de la obra pública aprobados por el Gobierno en 2010 y que este año han emulado  comunidades autónomas y ayuntamientos. Pero los problemas de General de Alquiler de Maquinaria no están solo en su principal cliente sino también en su propia evolución como empresa y en cómo se fraguó su proyecto empresarial. En efecto, GAM pasó en muy pocos años de ser un operador relevante del sector a convertirse en líder nacional en el alquiler de maquinaria. Y lo hizo fundamentalmente a través de préstamos para la adquisición de compañías y contratos de 'leasing' para compra de maquinaria. Es decir, endeudándose. El 13 de junio de 2006, un martes y trece y sólo tres años después de su constitución, la compañía salía a Bolsa tras captar 60 millones de euros en una ampliación de capital previa. Ese día, Pedro Luis Fernández aseguraba que el grupo se iba «a comer el mundo». Doce meses después, con la acción revalorizada un 211%, GAM se hacía con el control de la empresa Vilatel por 113,8 millones de euros, lo que le convertía en líder en España en el segmento de plataformas,  segundo operador europeo y décimo del mundo. Con esa operación, GAM  adelantaba a 2008 -dos años antes de lo previsto- el objetivo marcado en su plan estratégico de llegar a 300 millones de euros de facturación. Con velocidad de crucero y como líder consolidado del sector de alquiler de maquinaria, a lo largo de 2007 las cajas BBK, Caja Navarra y Caixanova se incorporaban al accionariado del grupo, en el que Cajastur ya venía participando como uno de los accionistas 'fundadores' con el 5,04% del capital. Pedro Luis Fernández (Oviedo, 28 de octubre de 1965), quien con 27 años había sido director general del Real Oviedo, es el máximo accionista con el 10,23%. La acción había deslumbrado y en noviembre de ese año siete firmas de inversión designaban a GAM como la empresa fuera del Ibex mejor gestionada. Paralelamente, el grupo había entrado en Portugal y ya exploraba opciones para internacionalizar su actividad en Europa, Magreb, Brasil y México. En apenas tres años  GAM logró duplicar su tamaño y cerraba 2008 con unas ventas récord de 371,5 millones de euros, frente a los 185,5 de 2006. Pero al mismo tiempo que crecía en facturación también aumentaba su deuda, que en el periodo 2006-2008 se disparó un 255% hasta marcar un máximo de 584 millones de euros. En 2005 su deuda financiera neta era de 63 millones. Pero llegó la crisis y con ella el desplome del principal mercado-cliente de GAM. Así, en 2009 la empresa entraba en pérdidas y en 2010 cerraba con un resultado negativo de 62,9 millones de euros. Y hasta septiembre de 2011 perdió otros 54 millones, si bien ha vuelto a resultados de explotación positivos tras acometer un férreo plan de ahorro de costes y reestructuración interna. Desinversión de activos -GAM tiene un parque de más de 50.000 máquinas-, reorganización de sociedades -el grupo está formado por 25 filiales frente a las 38  de 2009-y el impulso de la actividad internacional que aporta el 28% de las ventas y el 55% del resultado de explotación son las líneas estratégicas que impulsa el grupo para enderezar su situación. Ahora se esfuerza en cerrar un acuerdo de refinanciación que le aporte oxígeno y tranquilidad para frente a sus deudas. La acción, que el 12 de julio de 2007 marcó un máximo histórico de 28,40 euros, cerró el viernes a 0,50 euros.",
        "date": "19 nov. 2011",
        "source": "El Comercio Digital (Asturias)",
        "keyword": "GENERAL DE ALQUILER DE MAQUINARIA SA"
    },
    "https://www.elmundo.es/mundodinero/2006/06/13/economia/1150193732.html": {
        "title": "GAM aterriza en la Bolsa con mal pie | elmundo.es",
        "new": ".- La del año ya es una realidad, aunque ha comenzado con mal pie. La compañía asturiana General de Alquiler de Maquinaria (GAM) ha aterrizado en el parqué con un descenso inicial de más del 9%. Al cierre de la sesión de este martes su valor se situó en , frente a los 8,25 euros pagado por los inversores que acudieron a la oferta pública de venta (OPV). Tras estrenarse al mediodía con un precio de 7,84 euros, las acciones de la compañía asturiana continuaron bajando y cerraron con , con lo que se situó como la segunda empresa que más retrocedió durante la jornada, tan sólo superada por su principal accionista, Dinamia, que se dejó el 8,89% de su valor. Con la cotización de este martes, el valor de mercado de la compañía se situó en 216,6 millones de euros, frente a la de que arroja el precio establecido en la OPV. Los inversores negociaron más de 1,778 millones de títulos de GAM por valor de más de 13,64 millones de euros, con lo que la firma de alquiler de maquinaria fue el décimo valor más negociado. De este modo, se confirman los malos augurios mostrados cuando la compañía que preside Pedro Luis Fernández decidió el domingo fijar el precio de salida por debajo del mínimo previsto inicialmente de 9 euros por acción. Asimismo, y su OPS por la `elevada volatilidad registrada en las últimas fechas en los mercados` y por `facilitar una evolución positiva del precio de la acción en el mercado`. Pese a su mal aterrizaje en el parqué, el presidente de GAM calificó la y reconoció que se esperaba los bajos precios debido a que la operación llega al mercado en un mal momento, en el que impera la volatilidad, a lo que añadió que es `lógico` que los inversores no apuesten de inicio por una empresa pequeña y que ofrece un producto nuevo. `El objetivo era lograr una ampliación de capital, cotizar y dar liquidez al accionista`, dijo el presidente de GAM, quien recordó que con su salida al mercado pretende dar visibilidad a la empresa y lograr la financiación necesaria para conseguir cuotas `mucho más ambiciosas` y entrar en nuevos mercados. Avanzó que y explicó que, aunque piensa entrar en otros países, seguirá `reafirmando` España, porque sigue ofreciendo muchas oportunidades, a lo que añadió que en el futuro la empresa crecerá tanto de forma orgánica como por medio de adquisiciones. GAM se ha sumado a este año fértil en lo que a salidas a Bolsa se refiere, tras las de las inmobiliarias Renta Corporación y Parquesol, la de la farmacéutica Grifols y la de la sociedad de gestión inmobiliaria Astroc. A través de una oferta pública de venta (OPV) y una oferta pública de suscripción (OPS), la compañía dedicada al alquiler de todo tipo de maquinaria ha colocado en el mercado 12,50 millones de títulos el 43,86% de su capital social, sin incluir la 'green shoe'. La colocación total de GAM en caso de ejercitarse la 'green shoe' se elevará a 13,75 millones de acciones, representativas del . La compañía cerró 2005 con un beneficio de 12,94 millones, un 34,5% superior al de 2004, mientras que sus ingresos ascendieron a 126,42 millones, con una subida del 52,4% respecto al ejercicio anterior.",
        "date": "15 jun. 2006",
        "source": "elmundo.es",
        "keyword": "GENERAL DE ALQUILER DE MAQUINARIA SA"
    },
    "http://www.finanzas.com/noticias/economia/2008-11-24/66462_aporta-valores-mobiliarios-filial-kartera.html": {
        "title": "BBK aporta valores mobiliarios a su filial Kartera 1 en el marco de una operación de ampliación de capital.",
        "new": "IBEX 35 MADRID EUR/USD      BILBAO, 24 (EUROPA PRESS)  BBK ha aportado a su filial Kartera 1 S.L. determinados valores mobiliarios de su propiedad, por razones de reorganización de la gestión de la cartera de participadas, según informó a la Comisión Nacional del Mercado de Valores.  En un comunicado, la entidad informó de la operación de ampliación de capital  en Kartera 1, S.L., filial cien por cien del grupo BBK. En esta operación, la Caja ha suscrito y desembolsado la totalidad de la ampliación mediante aportación no dineraria de determinados valores mobiliarios de su propiedad.  Entre esos valores se encuentran acciones de sociedades cotizadas como , Bolsas y Mercados Españoles, , Enagás, Bodegas Bilbaínas, Red Eléctrica Corporación, General de Alquiler de Maquinaria o , entre otros.  La Caja indicó que esta operación se fundamenta en `razones de reorganización y racionalización` de la gestión de la cartera de participadas de BBK.",
        "date": "24 nov. 2008",
        "source": "Finanzas.com",
        "keyword": "GENERAL DE ALQUILER DE MAQUINARIA SA"
    },
    "https://www.expansion.com/2011/03/06/empresas/banca/1299450316.html": {
        "title": "Las cajas aceleran la venta de su cartera industrial para obtener capital,Banca. Expansión.com",
        "new": "El sector ha ingresado en las últimas semanas casi 1.000 millones mediante desinversiones. El Banco de España publicará el jueves la necesidad de capital de cada grupo. Medio centenar de empresas cotizadas españolas está en el punto de mira de los inversores por el riesgo de venta. Las cajas de ahorros necesitan reforzar con urgencia su capital para cumplir con los nuevos requisitos de solvencia del Gobierno y la venta de su cartera industrial –valorada en más de 30.000 millones– es una de las opciones que tiene el sector para reforzarse a corto plazo. Desde comienzos de año, cuando trascendieron las intenciones del Ejecutivo, CatalunyaCaixa, Novacaixagalicia, Bankia (el grupo de Caja Madrid y Bancaja), Banca Cívica y Unicaja han ingresado cerca de 1.000 millones con desinversiones en participadas. Este mismo fin de semana, Caja Madrid ha anunciado la venta del 12,5% de Mapfre Internacional (ver página 15). El jueves, el Banco de España dará a conocer las necesidades de capital de cada entidad. A partir de ese momento, los grupos que no alcancen el listón tendrán quince días para presentar un plan de recapitalización. Si prevé el apoyo de fondos públicos, el margen se amplía a un mes. Según los expertos, en la diana de futuras ventas están las participaciones en compañías como Abertis, Iberdrola, Gas Natural, NH Hoteles, Campofrío, GAM, Tubacex, Amper y Dinamia, entre otras. Hay compañías del Ibex, pero también muchas cotizadas en el Mercado Continuo (ver ilustración). Las primeras son más líquidas en bolsa, lo que facilita las transacciones de compra-venta. Pero también pertenecen a sectores estratégicos, como el energético o el de infraestructuras, y en cualquier decisión sobre su futuro deberían confluir más intereses que los de las propias cajas. Las empresas del Continuo tienen el inconveniente de que su liquidez es menor, lo que dificulta el intercambio de grandes paquetes accionariales. Otr0 factor a considerar es el precio. Una avalancha de papel al mercado por parte de las entidades presionaría a la baja las cotizaciones en bolsa. Los expertos creen que las entidades con más margen de maniobra desinvertirán de forma gradual para no perjudicar la cotización y obtener mayores ingresos. Por entidades, en el mercado se especula que Caja España-Duero, que trabaja en su unión con Mare Nostrum, terminará vendiendo acciones de Uralita, de la que tienen el 5% del capital, con un valor de mercado de 34,5 millones. La caja ya movió ficha el pasado año. Controlaba cerca del 5% de Ebro Puleva. Caixanovagalicia tiene en cartera un surtido de cotizadas que podrían ser vendidas. La entidad, de la que se desconoce su nivel de core capital (capital y reservas sobre activos de riesgo) tiene difícil captar capital en el mercado. Tiene en cartera Pescanova, Tecnocom, Quabit, Sacyr, Elecnor, Banco Pastor, Adolfo Domínguez, GAM y NH. En los últimos meses, se ha producido la reducción de participación de Caja Granada en Fersa y Caja Navarra ha puesto fin a su aventura en Barón de Ley. Banca Cívica tiene otras posiciones en posible riesgo de venta: Tubacex, GAM, Dinamia, Campofrío, San José, donde tiene entre el 2% y el 9,3%. En el mercado también se da por hecho que las cajas saldrán del accionariado de Abertis o, al menos, reducirán su presencia. La Caixa tiene casi un 25%, aunque mantiene que es una inversión estratégica. Los expertos prevén más ventas por parte de CatalunyaCaixa. Ya se ha desprendido de Repsol y el foco está en el 1,6% de Gas Natural. Las cajas de ahorros vascas, con mayor holgura de capital, estarían dispuestas a vender una participación residual en Sabadell, pero no es buen momento. Las participaciones de menor calado de Kutxa, como Zeltia, NH y Natra, están en el disparadero.  Los expertos señalan una serie de compañías con alto riesgo de venta por tener un nutrido grupo de cajas en el accionariado. Enagás sale en todas las quinielas y, de hecho, Bancaja acaba de vender su 5%. También está en esa situación General de Alquiler de Maquinaria (GAM), que tiene el 24% en manos de cuatro cajas. Amper está igualmente en la diana, al tener más del 20% repartido entre distintas entidades financieras, y NH Hoteles. Algunos analistas señalan también a Iberdrola, donde están presentes Bancaja, Caja Madrid y BBK, además de otras entidades con una presencia residual. Son precisamente estas participaciones minoritarias las que podrían venderse con más facilidad. Hay empresas en las que las entidades financieras tienen una fuerte presencia, pero más obligadas que por convicción. Es el caso de Sos Corporación, en plena reestructuración, donde las cajas atesoran casi la mitad del capital. Han tenido que acudir a la ampliación de capital con la que se pretende encarrilar el negocio de la compañía de alimentación. “Están más por obligación que por convicción. En cuanto mejore la situación y tengan oportunidad, venderán”, señala un analista. Inmobiliaria Colonial y Metrovacesa también están en manos de bancos y cajas, obligados por la refinanciación de la deuda. Las inmobiliarias están entre las más castigadas en bolsa desde el inicio de la crisis, con caídas de más del 80%. El patrimonio inmobiliario de buena parte de la banca tiene colgado desde hace meses el cartel de Se vende. En los últimos tres años, las entidades han hecho caja con la desinversión de sus inmuebles. Desde 2007, el sector ha ganado más de 3.100 millones con estas operaciones. Las plusvalías obtenidas se han destinado a reforzar el balance y el capital. Aunque estas operaciones han perdido hoy buena parte de su atractivo: la avalancha de inmuebles en el mercado ha presionado a la baja los precios. Los inmuebles de uso propio de las cajas están valorados en más de 16.000 millones. En La Caixa alcanzan los 3.352 millones, según datos del balance. La cifra de Caja Madrid se sitúa en 2.150 millones. Escala hasta 3.600 millones de euros si se considera todo el grupo Bankia. · Bancaja ha vendido hace dos semanas el 5% que controlaba en Enagás con unos ingresos de 450 millones de euros. · Novacaixagalicia ha obtenido más de 200 millones de euros con la desinversión del 1% de EDP y el 2,2% de Brisa. · También ha optado por por esta vía CatalunyaCaixa. Con la venta del 1,6% de Repsol ha ganado 186 millones. · Unicaja colocó en enero el 0,7% de Abertis por 72 millones. Banca Cívica ha vendido su participación en AC Hoteles por 11 millones.",
        "date": "6 mar. 2011",
        "source": "Expansión.com",
        "keyword": "GENERAL DE ALQUILER DE MAQUINARIA SA"
    },
    "https://www.lne.es/economia/2011/01/04/fondos-ee-uu-espana-compran-mivisa-fabrica-llanera/1015371.html": {
        "title": "Fondos de EE UU y España compran Mivisa, con una fábrica en Llanera - La Nueva España",
        "new": "La compañía murciana Mivisa, el mayor fabricante español y el tercero de Europa de envases metálicos para el sector alimentario, que posee una factoría en Llanera (Asturias) con 180 empleos, ha sido adquirida por una alianza integrada por dos fondos de capital riesgo, gestionados por The Blackstone Group y por N+1 (grupo Dinamia). La operación podría ascender a una cifra que oscila entre 850 y 900 millones de euros. El equipo directivo de Mivisa, liderado por Tomás López, conservará una participación accionarial minoritaria. Mivisa Envases, hasta ahora propiedad del fondo de capital riesgo anglo-luxemburgués CVC, es uno de los tres grandes consumidores de la hojalata que fabrica Arcelor-Mittal en Asturias y el País Vasco. Mivisa fue fundada en 1972 por la familia Vivancos, tiene una plantilla de unos 2.000 trabajadores y posee nueve fábricas, situadas en Asturias, Murcia, Galicia, La Rioja, Extremadura, Andalucía, Holanda, Hungría y Marruecos. En 2008 facturó 500 millones, exporta la mitad de su producción a Francia, Portugal, Holanda y Marruecos, y distribuye sus productos en más de 70 países. La compañía, que es proveedora de relevantes grupos conserveros, entre otras industrias de alimentación, genera un beneficio bruto de explotación (Ebitda) de 117 millones, según los últimos datos conocidos. El fondo de origen británico CVC había comprado Mivisa en marzo de 2005 por 500 millones de euros a otras dos compañías de capital riesgo: PAI Partners y Suala Capital. CVC es conocido en España por haber tomado participaciones en algún momento en sociedades como Cortefiel, El Árbol, Zena, Colomer Group y otros, por haber pujado por el grupo Avanza de autocares y buses (entonces participado por el asturiano Gonzalo Álvarez Arrojo) y por haberse aliado con la dinastía asturiana Cosmen cuando en 2009 intentaron hacer una opa por el 100% de NX. Blackstone, uno de los nuevos compradores, está considerado como el mayor fondo de capital riesgo de EE UU, y Dinamia es un grupo español de capital riesgo y la única sociedad española de este tipo que cotiza en el mercado bursátil, en el que debutó en diciembre de 1997. Dinamia fue accionista hasta 2007 de la compañía asturiana General de Alquiler de Maquinaria (GAM). La compra de Mivisa se prevé que se materialice el próximo trimestre, una vez obtenida la aprobación por las autoridades de Competencia.",
        "date": "3 ene. 2011",
        "source": "La Nueva España",
        "keyword": "GENERAL DE ALQUILER DE MAQUINARIA SA"
    }
}