,date,keyword,new,source,title,day,month,year,score,magnitude,language
1,2009-06-16,"GRUPO EMPRESARIAL SAN JOSE, SA","Madrid, 16 jun (EFE).- El empresario Diego Eduardo León ha comprado el 20,25 por ciento de la inmobiliaria Parquesol a un precio de 6,214 euros por acción, por lo que el montante de la operación se eleva a 50 millones de euros , informó hoy la compañía a la Comisión Nacional del Mercado de Valores (CNMV). El capital vendido estaba en manos de la propia inmobiliaria, que se ha deshecho de 1.981.613 acciones que tenía en autocartera; y del Grupo Empresarial San José, que se ha desprendido de más de 6 millones de títulos y que rebaja así su participación del 66 al 50,75 por ciento. Diego Eduardo Léon es vicepresidente de la compañía argentina Carlos Casado, dedicada al extracto del árbol quebracho y de la que el grupo San José adquirió una participación mayoritaria en 2007, según consta en su página web. Tras la compraventa, San José, que prevé salir a bolsa este mes, se mantiene como accionista de control de PARQUESOL ( ) seguido de León, que relega a Caja Castilla-La Mancha al puesto de tercer accionista de la inmobiliaria, con el 13,37 por ciento. La operación, para la que se ha fijado un calendario de pagos que finaliza en junio de 2012, se ha cerrado a un precio de 6,214 euros por acción, lo que supone un descuento del 26,7 por ciento respecto a los 8,48 euros a los que cerraron ayer los títulos de Parquesol. Las acciones transmitidas han sido objeto de pignoración a favor de los vendedores y, a su vez, los derechos de prensa cedidos por éstas a las entidades financiadoras del Grupo San José. A finales de abril, el Grupo San José cerró un acuerdo con sus entidades financieras acreedoras para refinanciar su deuda, que asciende a 1.963 millones de euros, en virtud del cual ponía como garantía de pago, entre otros activos, su participación en Parquesol, que ya cotiza en bolsa y con la que se fusionará antes de saltar al parqué. Tras la fusión, los accionistas de Parquesol pasarán a serlo del Grupo San José, conforme a una ecuación de canje de 12 títulos de la inmobiliaria por siete de Udra -sociedad inmobiliaria de San José-.",elEconomista.es,"El empresario Diego Eduardo León compra el 20,25 por ciento de Parquesol por 50 millones - elEconomista.es",16,6,2009,0.0,2.700000047683716,es
3,2011-08-31,"GRUPO EMPRESARIAL SAN JOSE, SA","Inditex batió ayer una nueva marca; entrar en la élite bursátil de Europa. Es la sexta empresa española seleccionada para entrar a formar parte del índice de referencia para la zona euro, el EurosStoxx 50, que elabora la empresa Stoxx Limited y que representa las 50 compañías por capitalización ajustada al capital que circula libremente en Bolsa (free float), tal y como confirmó la propia operadora del índice en un comunicado hecho público a las diez de la noche de ayer. El próximo día 19 la cotización de sus acciones empezarán a contar en el EuroStoxx 50, el índice en el que hasta ahora sólo participaban cinco empresas españolas; Banco Santander, BBVA, Telefónica, Repsol e Iberdrola. La incorporación de Inditex al EuroStoxx es además la primera de una compañía española en los últimos ocho años, tras la entrada de la vasca Iberdrola, en 2003, e incrementa el peso de las firmas españolas en el selectivo europeo. La entrada de la multinacional coruñesa en la élite bursátil de la eurozona se produce en sustitución de Crédit Agricole, que desde el próximo día 19 abandonará el índice junto con la también francesa Alstom. El gigante textil ocupaba desde el pasado 23 de agosto -cuando Stoxx Limited hizo su último ranking- el lugar número 45 de las empresas de la eurozona por capitalización bursátil, por encima de las dos galas, en los puestos 61 y 63, respectivamente. El índice lo forman las 40 empresas por capitalización de ese ranking y el resto hasta 50 son seleccionadas entre las que ocupan los puestos comprendidos entre los números 41 y 60. A favor de la selección de Inditex contó además su pertenencia a un sector, el de la venta minorista, que con su entrada apenas varía su peso en la composición de un índice donde el sector bancario tiene un claro predominio. Con Inditex entra además la automovilística alemana Volkswagen, que accedió directamente y sin selección previa tras situarse en el puesto 37 de la tabla. La entrada de la multinacional al selectivo europeo dependía del comportamiento en Bolsa que tuviese el banco francés Crédit Agricole, que podía hacerle ascender algún puesto por encima del 60 y que podría penalizar a Inditex -el índice da prioridad a sus miembros sobre las nuevas incorporaciones-pero el Ibex-35 ha mejorado posiciones en los últimos días e Inditex salió seleccionada pasadas las diez de la noche de ayer. El acceso del gigante textil premia la imparable trayectoria del grupo fundado por Amancio Ortega y Rosalía Mera que desde el pasado 19 de julio preside Pablo Isla. La compañía no ha dejado de crecer en facturación, ventas, número de establecimientos, marcas y empleados y ya cuarenta días después de haber dado el salto al parqué, en 2001, entró a formar parte de los 35 mayores valores bursátiles de España, reunidos en el Ibex-35. Desde el inicio del año sus acciones se han revalorizado un 7,4% y un 303% desde su estreno en el mercado, con un valor por acción de tan sólo 14,70 euros. Mientras, el selectivo europeo ha perdido en los últimos seis meses un 24% y un 20% el español. La multinacional con sede en Arteixo es, desde hace algo más de un año y tras desbancar a BBVA, la tercera empresa española que más vale de la Bolsa española, sólo superada por Telefónica y Banco Santander. El pasado 21 de junio superó a la sueca Hennes&Mauritz (H&M) como la empresa textil del mundo que más vale en Bolsa, cuando su capitalización ascendía a 38.777 millones -hoy, pese a la debacle de agosto, superados en 39.357 millones-. Y ya en 2008 se convirtió en líder mundial de su sector por facturación, por encima de la estadounidense GAP. Todavía no ha superado a H&M como la empresa textil del mundo que tiene más beneficios. La sueca cerró 2010 con más de 2.000 millones de ganancias y la gallega, se quedó en algo más de 1.700, pero los analistas dan por hecho que pronto conseguirá batir la marca, sobre todo con el negocio online estrenado hace un año en Europa . El salto al mercado virtual de Estados Unidos se producirá en una semana. Las pérdidas de agosto La Bolsa cerró ayer un aciago mes con pérdidas del 10% que lo sitúan como el peor agosto de los últimos trece años. Desde 1998 -cuando la devaluación del rublo y los problemas políticos en Rusia provocaron un descenso del 21,24%- el Ibex-35 no perdía tanto en un mes caracterizado por el escaso volumen de negociación. Pero la caída pudo haber sido aún más dura, de no haberse producido rebotes en los tres últimos días que compensaron, aunque ligeramente, las pérdidas de las empresas que cotizan en el mercado bursátil de referencia en España. Las firmas gallegas, que el viernes pasado acumulaban unas pérdidas superiores a 5.000 millones de euros, cerraron el mes con un descenso considerable, pero no tan acusado; 2.595 millones de euros. Al cierre de la primera semana de agosto el saldo negativo era muy superior: 3.800 millones. El miedo de los inversores a un enfriamiento de la economía internacional, el ataque a la deuda de España e Italia durante los primeros días del mes (la prima de riesgo española llegó a superar los 410 puntos básicos), y la rebaja del rating de Estados Unidos, por primera vez en la historia, por parte de la agencia de calificación Standard and Poor's sembraron el pánico en las bolsas de todo el mundo y el Ibex llegó a marcar mínimos. En las últimas semanas las tensiones en los mercados se relajaron gracias al plan del Banco Central Europeo (BCE) para comprar deuda de España e Italia. De hecho, el Ibex acumula tres sesiones consecutivas de ascensos. En la jornada de ayer subió un 3,24%, lo que la llevó a volver a superar los 8.700 puntos, muy por encima de los mínimos registrados -El 10 de agosto el Ibex-35 cerró en 7.966-, pero a distancia aún de los 9.630,70 puntos que marcó el viernes 29 de julio, la última jornada hábil antes del arranque de agosto. Dentro de esta tormenta bursatil, los grandes valores gallegos que cotizan en la bolsa han sufrido con intensidad por la crisis de la deuda financiera en Europa. . Inditex. La empresa con mayor volumen de facturación de la comunidad y más de 92.000 empleados en todo el mundo fue la que sufrió el peor golpe, a causa también de su mayor tamaño y del valor de sus títulos. Sus acciones se depreciaron un 6% desde el pasado 29 de julio. Su valor en Bolsa se desplomó en 2.394 millones de euros, hasta los 36.963 millones en que cerró ayer. Pese a la caída, Inditex es una de las dos únicas empresas del Ibex-35 que ha aumentado su valoración en Bolsa en lo que va de 2011, hasta un 7,4% en un ejercicio muy difícil en los mercados, a la vista de los registros que ha dejado el mes pasado. Por ello y por el imparable crecimiento de las ventas de la compañía, todos los expertos consideran las acciones de Inditex como un valor seguro y algunos de ellos daban por hecho que la subida de ayer -de un 4,2%- ya descontaba su entrada en el EuroStoxx 50. . Zeltia. La compañía biotecnológica es sin embargo la que sufrió una mayor caída porcentual de su valor en Bolsa. Vale 373,3 millones, un 21% menos que al inicio del mes. O lo que es lo mismo; cien millones menos. . Pescanova. Es tras el gigante textil, la empresa gallega cuyos títulos bajaron más; un 11,7%. La reina del congelado vale 513,4 millones de euros en Bolsa, 69 menos que treinta días atrás. El 23,03% que está en manos de su presidente, Manuel Fernández de Sousa, tiene actualmente un valor de 118,2 millones de euros. . Banco Pastor. A la entidad que preside José María Arias tampoco le ha ido nada bien el mes de agosto, marcado además por el castigo de los inversores a la banca. Es la cuarta empresa gallega que se depreció más en Bolsa durante el mes pasado, 28 millones de euros, un 3,3%. De los 2.789 que llegó a valer en Bolsa, la capitalización del Banco Pastor ha caído hasta los 785,8 millones en que cerró ayer. . Grupo Empresarial San José. El pasado 20 de julio cumplió dos años en el parqué con una pérdida de valor por acción del 73,5%. De los 12,86 euros que valía cada título en 2009 a los 3,40 dos años después. Agosto aún ahondó más en la herida con un descenso del 1,5% y sus acciones cerraron en 3,20 euros. Hoy el grupo pontevedrés tiene un valor de 208 millones de euros, tres menos que un mes antes. . Adolfo Domínguez. La otra textil gallega que cotiza en Bolsa tampoco pasa por sus mejores momentos. Cerró el pasado ejercicio con unas pérdidas de 4,7 millones de euros y su valor en Bolsa no ha hecho más que caer en los últimos años. El pasado mes sufrió una nueva rebaja en el precio por título de un 3,5%, algo más de 2,5 millones de euros en capitalización. La empresa del modisto ourensano abrirá la sesión bursátil de hoy con un valor en Bolsa de 67,9 millones de euros.",La Opinión A Coruña,Inditex se convierte en la sexta empresa española que entra en el EuroStoxx 50 - La Opinión A Coruña,31,8,2011,-0.20000000298023224,22.399999618530273,es
2,2013-07-31,"GRUPO EMPRESARIAL SAN JOSE, SA","Hoy empiezan las vacaciones para muchos españoles. Y muchos inversores también dejan de operar. Agosto es el mes en el que históricamente se registra la menor negociación bursátil de todo el ejercicio. El año pasado, por ejemplo, la bolsa española movió la mitad de dinero que el mes previo. Por eso es más relevante si cabe tener en cuenta en qué valores el volumen es ya de por sí muy bajo. El inversor puede encontrar más de un centenar de compañías en la bolsa española, pero en un 30% ni siquiera se intercambian 100.000 euros diarios de media este año. Es necesario contextualizar esta cifra para entender de cuánto dinero se está hablando. Las diez grandes compañías del Ibex están moviendo al día una media de 145 millones de euros. Otro ejemplo. En los dos grandes bancos, los dos valores más líquidos, la contratación diaria ronda este año los 353 millones en el caso del Santander y los 344 millones, en BBVA. En cambio, compañías españolas como Inypsa, Funespaña, Bodegas Riojanas, Grupo Tavex, Lingotes Especiales, Nicolás Correa, Adolfo Domínguez o Vocento están negociando incluso menos de 20.000 euros de media en una sesión. En el último mes, Vértice 360º, Prim, Azcoyen, Biosearch, Service Point, Grupo Empresarial San José y Tecnocom tampoco han llegado a esa cifra. La negociación es una variable que el inversor debe valorar, porque al final afecta a la cotización de la acción. `Son empresas muy ilíquidas y la fijación de su precio de mercado no es particularmente eficiente. La información no es simétrica. Son posiciones de las que cuesta salir en momentos complejos de mercado. En este sentido, presentan un riesgo mayor que otras compañías de tamaño medio o grande`, explica Félix González, socio director general de Capitalia Familiar. Uno de los grandes peligros es que estos valores `son fácilmente manipulables, al no necesitar de cantidades muy elevadas para provocar movimientos fuertes en el título`, señala Soledad Pellón, estratega de mercados de IG. `Este mismo motivo es el que hace que sean normalmente más volátiles: la salida o entrada de un inversor importante hace que el valor sufra movimientos muy bruscos`, añade la analista. Cualquier operación significativa no pasa desapercibida en este tipo de empresas. En el supuesto de que un gestor o un accionista de referencia quisiera vender un 1% del capital de Bodegas Riojanas en una sola jornada implicaría multiplicar por 23 el volumen que mueve normalmente el título. Desde el punto de vista contrario, si un gestor quisiera comprar un 1% de esta compañía necesitaría 23 días para hacerlo sin alterar su volumen medio de negociación. Y es que al ritmo de contratación de 2013 pasarían alrededor de 9 años hasta que rotase todo el capital de la compañía. No es la única cotizada en la que ocurre esto, ya que una docena de españolas necesitaría más de cinco años para mover el equivalente a su capitalización bursátil actual. Coincide que en muchos de estos valores los bancos de inversión o bien no hacen seguimiento o bien recomiendan mayoritariamente vender. El consenso de mercado sólo aconseja comprar tres de las empresas que mueven de media 100.000 euros diarios. Se trata de Clínica Baviera, Iberpapel y Adveo. Otros tres valores que no alcanzan los 200.000 euros también reciben una recomendación de compra: Campofrío, Rovi y Barón de Ley.",elEconomista.es,El 30% de valores de la bolsa española mueve menos de 100.000 euros al día - elEconomista.es,31,7,2013,-0.20000000298023224,11.100000381469727,es
0,2014-08-29,"GRUPO EMPRESARIAL SAN JOSE, SA","El Grupo Empresarial San José ha nombrado consejero por cooptación al exministro de la Presidencia y de Educación de UCD José Manuel Otero Novas, quien ha aceptado el cargo, según ha informado hoy la compañía a la Comisión Nacional del Mercado de Valores (CNMV). Otero sustituye a Guillermo de la Dehesa, quien ha presentado su dimisión en cumplimiento de la directiva europea del capital, por la que se limita el número de consejos a los que pueden pertenecer quienes sean consejeros en entidades financieras (en su caso, de Banco Santander). Otero es abogado del Estado y fue ministro de la Presidencia y de Educación con UCD. Actualmente es árbitro de la Corte Civil y Mercantil de Arbitraje, ejerce la abogacía libre y es consejero de varias empresas.",Expansión.com,Grupo San José nombra consejero al exministro José Manuel Otero - Expansión.com,29,8,2014,0.20000000298023224,1.100000023841858,es
