{
    "https://www.hosteltur.com/157200_trh-hoteles-nombra-jose-luis-paz-como-nuevo-director-operaciones.html": {
        "title": "TRH Hoteles nombra a José Luis de Paz como nuevo director de Operaciones | Hoteles y Alojamientos",
        "new": "ha sido nombrado como nuevo director de Operaciones de la cadena . Con este cargo, el nuevo directivo se encargará de coordinar y dirigir los nueve establecimientos en la y que componen la cartera de la compañía. Sus funciones principales consistirán en impulsar la eficiencia en el servicio y optimizar todo lo relativo a procedimientos, compras, suministros y personal, entre otras actividades, relacionadas con estos hoteles. José Luis de Paz cuenta con una amplia trayectoria profesional y experiencia en el área de operaciones financieras en hotelería. Inició su andadura profesional hace 12 años como auditor y consultor en , empresa en la que desempeñó funciones de auditoría y seguros en el departamento de    . Posteriormente, desembarcó en el , donde ocupó el cargo de responsable del departamento de Negocios y, más tarde, se incorporó como controller financiero para . De ahí pasó a ser el director económico financiero de Acoghe, S. L., una empresa dedicada a la gestión hotelera. El  le reclutó para dirigir el departamento económico financiero y de explotación. Más adelante su trayectoria profesional le llevó a formar parte de , donde desempeñó tareas de dirección económico-financiera y de operaciones. En cuanto a su formación, es Licenciado en Ciencias Económicas y Empresariales por la , con un título de Actuario de Seguros por la Universidad Complutense. Además, es Máster en Dirección Económica Financiera y Máster en Tributación y Asesoría Fiscal, ambos por el . También ha asistido a varios cursos de Gestión de riesgos financieros, Gestión económica-fiscal y un curso de Consolidación de estados financieros y sistemas de información económica en el entorno de grupos empresariales, entre otros.",
        "date": "11 ene. 2012",
        "source": "HostelTur",
        "keyword": "TR HOTEL JARDIN DEL MAR SA"
    },
    "https://www.hosteltur.com/110780_trh-hoteles-nombra-como-director-carlos-miranda.html": {
        "title": "TRH Hoteles nombra como director a Carlos Miranda | Hoteles y Alojamientos",
        "new": "ha nombrado como director general de la cadena a ,  quien asumirá funciones de consolidación de la organización, así como otras relacionadas  con las áreas comerciales y operativas de los nueve establecimientos que  la compañía tiene en propiedad en la Península y las Islas Baleares. Miranda comenzó su trayectoria profesional ligada a la hotelería en la Corporación Empresarial , donde se responsabilizó de la compra de los primeros solares residenciales. Posteriormente, desembarcó en , donde ocupó el cargo de director general llegando a gestionar 19 establecimientos, diez en España y nueve en Venezuela. Asimismo, tras pasar por , Miranda se convirtió más tarde en el director general de como máximo responsable de los resultados operativos en 19 establecimientos, participando en los procesos de adquisición de los hoteles. En cuanto a su formación, es Licenciado en Derecho por la Universidad de Cádiz y cuenta con formación específica en el Área de Dirección  de Empresas, Sistemas de Calidad y Gestión financiera por centros como el Instituto de Empresa.",
        "date": "16 oct. 2012",
        "source": "HostelTur",
        "keyword": "TR HOTEL JARDIN DEL MAR SA"
    },
    "http://www.viajaratope.com/Noticias-10427-la-cadena-TRH-Hoteles-presenta-sus-novedades-para-2013.html": {
        "title": "La Cadena TRH Hoteles presenta sus novedades para 2013",
        "new": "Diferenciación de productos en los segmentos MICE y vacacional definen las claves de futuro de la compañía, tal como ha confirmado su director general, Carlos Miranda La cadena hotelera, con nueve establecimientos repartidos por algunos de los principales destinos turísticos a nivel nacional —Costa del Sol, Islas Baleares, Sevilla y Jaén—, ha dado a conocer las iniciativas que va a poner en marcha a corto plazo, donde destaca la mejora del posicionamiento en el segmento de turismo corporativo y vacacional, en un acto organizado esta mañana en Madrid. La cita ha servido, además, para presentar en sociedad a su nueva Directora Comercial y de Marketing, Elena Valcarce, recientemente nombrada en el cargo, y al resto del equipo comercial. Con un producto claramente enmarcado en los segmentos vacacional y corporativo, el grupo TRH Hoteles se ha presentado en Madrid. La compañía, que cuenta con nueve establecimientos repartidos entre el sur de la Península y las Islas Baleares, está realizando importantes esfuerzos en la mejora de su posicionamiento de cara a los usuarios finales, apostando por algunos de sus establecimientos más emblemáticos, como el TRH Alcora (en Sevilla). Este hotel, buque insignia de la cadena, cuenta con más de 400 habitaciones y está dotado con 21 salones para eventos y reuniones de negocios. Su ubicación —a escasos cinco minutos del centro de la capital hispalense— le ha convertido en el principal referente de la ciudad dentro del segmento MICE. Además, y en el marco de una posible expansión a nivel nacional, el director general de la compañía, Carlos Miranda, confirma que “se están analizando algunas oportunidades de negocio en diferentes ubicaciones, teniendo en cuenta, por supuesto, el contexto económico actual en el que nos encontramos”. Estas son algunas de las claves del futuro de TRH Hoteles a corto plazo, tal como se ha dado a conocer esta misma mañana en un acto que ha contado con la presencia del Director General de la compañía, Carlos Miranda, y de su Directora Comercial y de Marketing, Elena Valcarce, recientemente nombrada en el cargo. Junto a ellos también han estado presentes otros miembros del equipo comercial de TRH Hoteles, como los Coordinadores comerciales, Carlos Bendodo, Carlos Cabanillas y Carolina Domínguez, y la Revenue Management Executive, Antonia Valero. La segmentación es una de las señas de identidad de la cadena, como demuestran las tres marcas bajo las que se clasifican sus nueve establecimientos: Business and Congress, Business and Cultural y Beach Hotel, con subproductos dirigidos a los amantes del golf (Golf and Beach) y a los que viajan en familia y con amigos (Fun and Young). “Actualmente contamos con un producto muy equilibrado, vacacional en unos casos y de negocios en otros, en zonas y ubicaciones con proyección turística”, ha confirmado Valcarce, quien apuesta firmemente por “sacar el máximo partido a nuestros hoteles y colocarles en el lugar que les corresponde”. Los hoteles con los que cuenta la cadena en la actualidad son: TRH Alcora, el buque insignia de la cadena, está situado a escasos cinco minutos en transporte del centro de la capital hispalense; TRH La Motilla, en la localidad sevillana de Dos Hermanas; TRH Ciudad de Baeza, en Baeza (Jaén), declarada ciudad Patrimonio de la Humanidad; TRH Paraíso, en Estepona (Málaga); TRH Míjas, en el centro de esta localidad malagueña; TRH Jardín del Mar, TRH Torrenova y TRH Palmanova, todos en Mallorca y con una ubicación privilegiada frente al mar; y TRH Tirant Playa, en la vecina isla de Menorca. TRH Hoteles es una cadena hotelera de capital 100% español, que cuenta con nueve establecimientos situados en diferentes puntos de la geografía española, enclaves destacados por su riqueza cultural, paisajística y urbana. Sus hoteles se diferencian por una oferta segmentada y dirigida a todo tipo de viajeros, clasificada en tres categorías principalmente: Business and Congress, con hoteles ubicados en Sevilla; Business and Cultural, con presencia en la capital hispalense y Baeza, Jaén; y Beach Hotel, cuyos establecimientos se encuentran en la Costa del Sol y las Islas Baleares, destinos eminentemente tradicionales en sol y playa.",
        "date": "13 mar. 2013",
        "source": "Viajaratope",
        "keyword": "TR HOTEL JARDIN DEL MAR SA"
    },
    "https://www.hosteltur.com/127670_gustavo-carrio-nuevo-director-hotel-trh-alcora.html": {
        "title": "Gustavo Carrio, nuevo director del hotel TRH Alcora | Hoteles y Alojamientos",
        "new": "ha nombrado a como nuevo director del hotel , un 4 estrellas de 401 habitaciones ubicado en  , . También se ha renovado la Dirección Comercial, con como responsable del departamento. Estos cambios en la dirección y gerencia del establecimiento se realizan con el reto de convertirse en referente especializado en congresos, convenciones e incentivos a nivel nacional, según indica la compañía, mejorando su posicionamiento y a través de una estrategia de optimización de ventas y consolidación de las relaciones con los principales clientes e intermediarios. Carrio, titulado en Turismo, con estudios superiores en Gerencia y Dirección Hotelera y diplomado en Contabilidad por la Escuela de Turismo de Lausanne (Suiza), ha sido director de los establecimientos que TRH posee en Málaga - y -. Antes de esta etapa, ha ocupado cargos de dirección en la cadena , así como en los hoteles  y . Por su parte Guillena es licenciada en Filología inglesa y con un máster en Dirección Comercial y Marketing, Procede de la dirección comercial de , donde ha sido responsable de la gestión de la zona sur durante los últimos siete años. En sus 20 años de trayectoria figuran también compañías como , o , entre otras. Junto a ella estará la diplomada en Turismo , con más de 10 años de experiencia comercial vinculada a establecimientos como el y , y la cadena , entre otros. ( ) ",
        "date": "14 ene. 2013",
        "source": "HostelTur",
        "keyword": "TR HOTEL JARDIN DEL MAR SA"
    },
    "https://www.alimarket.es/hoteles/noticia/95358/el-grupo-inmobiliario-tremon-y-su-hotelera-trh-logran-el-respaldo-mayoritario-de-sus-acreedores": {
        "title": "El grupo inmobiliario Tremón y su hotelera TRH logran el respaldo mayoritario de sus acreedores - Noticias de Hoteles en Alimarket, información económica sectorial",
        "new": "Este sitio hace uso de cookies propias y de terceros para analizar ciertos hábitos durante su navegación y ofrecerle publicidad adaptada a sus intereses. Al seguir navegando entendemos que acepta nuestra . TR Hoteles Alojamientos y Hosterías, gestora de la cadena hotelera TRH y propietaria de sus nueve establecimientos e integrada en el grupo de empresas Tremon, ha recibido el respaldo de la mayoría de sus acreedores para salir del concurso. TRH y las otras dos principales sociedades del grupo, Atlantis Servicios Inmobiliarios y Grupo Inmobiliario Tremon, se encontraban en esta situación desde diciembre de 2008, si bien habían presentado Al parecer, s  u plan, que contempla el pago de todas sus deudas, que ascienden a 600 M€, en un plazo de nueve años -con tres de carencia-, habría sido ratificado por la junta de acreedores de la inmobiliaria en el Juzgado de lo Mercantil Número 2 de Madrid. En total, el convenio ha recibido adhesiones representativas del 78% de su deuda, en su mayoría entidades financieras, según informa Europa Press. Tremón ha logrado en estos casi cuatro años reducir su deuda, que se elevaba a 1.406 M€ a finales de 2008, gracias a la venta de inmuebles y de suelo. La inmobiliaria mantendrá entre sus activos la cadena hotelera TRH, los aparcamientos, los locales comerciales y otra serie de activos que estudia desarrollar. Los principales acreedores de Tremón son los bancos, encabezados por Popular y su antigua filial Banco de Andalucía, La Caixa, Bancaja y Banco de Valencia. El grupo, controlado por Hilario Rodríguez Elías, consolidó ventas de 43,73 M€ en 2010 (-42%).        TRH Hoteles está integrada por nueve establecimientos que ofrecen un total de 1.666 habitaciones, repartidos en Baleares (4), Málaga (2), Sevilla (2) y Jaén. ",
        "date": "17 may. 2012",
        "source": "Alimarket",
        "keyword": "TR HOTEL JARDIN DEL MAR SA"
    },
    "https://www.hosteltur.com/108801_ranking-hosteltur-de-cadenas-hoteleras-2018.html": {
        "title": "Ranking Hosteltur de cadenas hoteleras 2018 | Hoteles y Alojamientos",
        "new": "Los números lo confirman: las han aprovechado los últimos años de bonanza para intensificar su en destinos consolidados, pero también siendo pioneras en otros hasta ahora fuera del circuito, sin desatender su estrategia de en España. El reúne en esta decimotercera edición los datos de con más de 1.000 habitaciones, las mismas que hace un año ya que ha declinado su participación. Sus resultados se complementan con los del ranking de presencia internacional desglosada por países, que se publicará en octubre, y con el que analiza la oferta de las hoteleras con menos de 1.000 habitaciones, que verá la luz en noviembre. Las 121 cadenas presentes en esta primera entrega suman , 55.619 más que el pasado año, lo que representa un crecimiento de la oferta de casi el 9%. A ello han contribuido los , aprovechando el buen momento del turismo español. Un buen momento que sin embargo no lo ha sido tanto para cadenas como (ahora , según publicó en ' '), que han perdido el nivel de las 1.000 habitaciones y abandonan este ranking. Por el contrario, se incorpora al listado al superar este umbral. Entre las 10 compañías que lideran la oferta hotelera nacional se producen dos cambios importantes, ya que el espectacular crecimiento registrado por -con 43 nuevos hoteles y 7.000 habitaciones más, aunque son cifras estimadas ambos años- y -que pasa de 22 a 67 establecimientos con 13.000 nuevas habitaciones-, les da entrada a estos primeros puestos, dejando fuera a . El resto de cadenas de este top 10 mantienen sus puestos pero también con grandes desarrollos, encabezadas por , cuya le está dando óptimos resultados (' '). Prueba de ello son sus 18 nuevos hoteles que suman casi 4.000 habitaciones. No se queda lejos , que alcanza los 100 establecimientos tras incorporar 17 a su portfolio con cerca de 3.000 cuartos. añade 19 con 1.265 dependencias, cifra similar a la de con un nuevo alojamiento; mientras que agrega 1.000 nuevas habitaciones a su oferta distribuidas en seis hoteles, y hace lo propio con nueve establecimientos y 500 habitaciones más. Entre las cadenas líderes del sector la única que apuesta por es , que ve descender su número de alojamientos en cuatro -tres de ellos son los que vendió a en a finales del pasado año (' ')-, con la consiguiente bajada de 1.376 habitaciones, si bien conserva su cuarto puesto en el ranking. Otros han sido los protagonizados por , que ha duplicado su oferta de habitaciones con 13 nuevos hoteles; , con seis establecimientos y 1.700 cuartos más; y , que ha incorporado dos y 1.000 habitaciones, aunque las cifras del año pasado estaban estimadas. La escisión de marcas dentro del que se produjo a principios de verano (' ') ha provocado que , propietaria y gestora de sus , inicie su andadura con menos de la mitad de las habitaciones del grupo; mientras que , matriz de se ha quedado con los tres hoteles de que suman 1.765 habitaciones, y un proyecto en con 570, actualmente en construcción. también se deja la mitad de sus habitaciones a pesar de contar con un alojamiento más; y reduce su oferta en cuatro y 1.500 dependencias menos, según cifras estimadas. Las cadenas del top 10 optan en nuestro país por salvo excepciones, aunque sí se producen variaciones entre sus integrantes. Así, –con tres nuevos establecimientos y más de 1.000 habitaciones- y intercambian posiciones en el sexto y séptimo puesto, al igual que (-7 y -1.441 cuartos) en el octavo y noveno. Además, la entrada de entre los 10 primeros deja fuera a , con dos hoteles y 1.000 habitaciones menos. Se apuntan también a los descensos , con tres alojamientos y casi 800 habitaciones menos; las mismas en que se reduce la oferta de , con un establecimiento menos; mientras que deja de operar uno y sus 400 cuartos. En el ranking de facturación destaca el , que sube casi un 70% hasta los 2.232,7 millones de euros, lo que le permite pasar del quinto al tercer puesto, por delante de Riu y NH. Este incremento se debe en gran medida, según fuentes de la cadena, a “la , por importe de 660 millones, derivado de la adquisición a principios de 2017 del 60% restante de ”. Sin salir del top 10, intercambian posiciones, con aumentos del 16,8% y 2,4% en ingresos. El buen momento que vive la hotelería española también se refleja en los que han acompañado su expansión. Es el caso de (+150%), (+105%), (+56%), (+41%), (+39%) y (+31%). Son sólo los ejemplos más destacados, pero el entre las grandes y medianas cadenas. En el otro plato de la balanza se colocan (-5%), (-3,5%) y (-3%). El informe completo del ranking se ha publicado en la , y también está disponible en el pdf adjunto. : El dato de facturación facilitado por en el momento de realizar el Ranking era incorrecto. En su lugar debería aparecer la cifra de , lo que le colocaría en el puesto 26 del listado por volumen de ingresos. , matriz de , debería aparecer en este ranking ya que sus tres hoteles en suman 1.765 habitaciones.",
        "date": "16 sept. 2018",
        "source": "Hosteltur: Noticias de turismo",
        "keyword": "TR HOTEL JARDIN DEL MAR SA"
    },
    "https://www.hosteltur.com/128064_trh-taoro-garden-estrena-reforma-4-m.html": {
        "title": "El TRH Taoro Garden estrena reforma de 4 M € | Hoteles y Alojamientos",
        "new": "El  grupo ha  invertido cuatro millones de euros en la renovación del (Puerto  de la Cruz, Tenerife),  el  antiguo hotel Atalaya que tras 39 años en funcionamiento cerró en  julio de 2011. Los  trabajos, que se han prolongado durado nueve meses, han supuesto la  reforma integral de las instalaciones de este 4  estrellas  de 182 habitaciones así como de su  decoración, y  la incorporación de las últimas tecnologías en energías  renovables y eficiencia energética. El acto de  inauguración contó con la asistencia e intervención del  viceconsejero de Turismo del Gobierno de Canarias, ; el presidente del Cabildo tinerfeño, Carlos Alonso; el  alcalde de Puerto de la Cruz, ; el presidente de , , y el director general de TRH  Hoteles, .",
        "date": "9 may. 2018",
        "source": "Hosteltur: Noticias de turismo",
        "keyword": "TR HOTEL JARDIN DEL MAR SA"
    },
    "https://www.elespanol.com/economia/empresas/20180121/hoteles-elba-cierra-ocupacion-pone-foco-congresos/278722801_0.html": {
        "title": "Hoteles Elba cierra 2017 con un 85% de ocupación y pone su foco en los congresos",
        "new": "Cuenta de usuario Premium Servicios El León de El Español Publicaciones   Año nuevo, hotel nuevo. Así ha arrancado 2018 la cadena de hoteles Elba que a principios de este mes sumaba a su catálogo su primera ubicación en Madrid, el hotel Elba Alcalá. Un buen arranque de año para poner cierre a un 2017 `muy positivo` para la cadena, comenta a EL ESPAÑOL Manuel López, director de Operaciones de Hoteles Elba. A falta de cerrar las cuentas del ejercicio, el directivo avanza que en el último año `han registrado y, por tanto, un incremento en los beneficios`. En este resultado han influido una alta ocupación, por encima del 85% de media y , y la recuperación que ha experimentado la costa andaluza en el último año, apunta. Además, la hotelera ha conseguido aumentar sus precios en un 40% en los últimos cinco años en todos sus hoteles. La senda de Elba en los últimos ejercicios ha sido igualmente positiva. En 2016 la facturación alcanzó los 8,4 millones de euros (un millón más que en 2015), y el beneficio se situó por encima de los 684.800 euros, según las últimas cuentas depositadas en el Registro Mercantil a las que ha tenido acceso este periódico. ¿Y para este año? `La perspectiva es buena, nada hace pensar en lo contrario, aunque vivimos en un mundo cambiante`, indica López. Consultado por la cartera de proyectos para este año, el directivo indica que están abiertos a oportunidades y que, en caso de que surjan, se estudiarán. Hoteles Elba, que , tiene en Canarias, la costa de Andalucía y Madrid, y un hotel franquiciado bajo una marca de Marriott, el Sheraton Fuerteventura. En este 2018 espera, además, terminar la reforma de su hotel en Mallorca -adquirido a TRH Hoteles en 2016 por un monto no revelado- para poder reabrir. Sus establecimientos son principalmente vacacionales de cuatro estrellas, pero también cuenta con establecimientos de cinco y dos de tres estrellas (Fuerteventura) que por el momento están funcionando muy bien y no prevé reposicionar. En total, La plaza madrileña es una de las más cotizadas para el sector hotelero. A Elba les ha costado cinco años desembarcar en la capital y, finalmente, adquirió un establecimiento de . Es su primer hotel en Madrid, pero el tercero que suma en el segmento urbano después de los abiertos en Almería y Gran Canaria. El hotel Elba Alcalá ya estaba abierto, por lo que tras su toma de control se ha producido una continuidad del negocio, pero durante este año `, indica López. Según la hotelera, la decisión de adquirir este establecimiento -cuya inversión no han querido desvelar- se basó en tres claves: localización, instalaciones y tamaño. `Las condiciones idóneas para adaptarse a los estándares de Elba`, afirma su director general, Fernando de las Heras. Su desembarco en Madrid llega en un momento óptimo, ha subrayado su director general, dando un impulso a su plan de crecimiento. El (acrónimo en inglés para el turismo de reuniones, incentivos, congresos y exposiciones) más atractivos de la ciudad en un momento de resurgimiento de este segmento en la capital. `Madrid es una ciudad muy bien preparada para el MICE gracias a sus infraestructuras. Además, en los últimos años la plata hotelera se ha renovado de forma potente y están llegando empresas, con lo que `, asegura López quien ve posible superar las buenas cifras de 2017 en este segmento gracias a la buena marcha del sector. La bronca de Letizia a un escolta por no avisarla de un escalón en Sevilla 'Camilín' y su madre, 'okupas' en el chalé de Camilo Sesto desde donde... Quién es Rachel Valdés, la cubana por la que Alejandro Sanz ha roto su... La extraña enfermedad que padece Mafalda, la hija de Pablo Carbonell: su... El peligro de comer solo carne magra: inanición cunicular, el hambre que... EL ESPAÑOL te invita a visitar el Santiago Bernabéu Trailer de las 24 Horas de Le Mans 2019 La bronca de Letizia a un escolta por no... Camilín y su madre acuden a la casa de Camilo Sesto Imágenes del día: Willy Bárcenas y Loreto Sesma dan rienda suelta a su pasión en su última foto Qué fue de Seydou Keita: de los líos con Pepe a su paso por Barça y Valencia Los efectos de Dana en el sureste de la península Caos en los vuelos de Ryanair: un fallo en el check-in deja tirados a los pasajeros en toda Europa Tu tarjeta ya no basta para pagar por internet: así empezarás a comprar desde este sábado La mudanza de Zara Home: se convierte en la quinta sección de Zara para vender más ‘online’ El increíble cuento chino de Jack Ma, fundador de Alibaba y el comunista más rico del mundo El ‘pachacho’ David Broncano, ninguneado por la Ser, se plantea bajar el telón en ‘La Vida Moderna’.",
        "date": "20 ene. 2018",
        "source": "El Español",
        "keyword": "TR HOTEL JARDIN DEL MAR SA"
    },
    "https://www.diariosur.es/universidad/201706/05/estudiantes-malaguenos-ganan-premio-20170605191503.html": {
        "title": "Estudiantes malagueños ganan el premio ESIC al mejor plan de marketing | Diario Sur",
        "new": "Esta es tu última noticia por ver este mes Suscríbete por 4,95 € al mes o por 49,50 € al año. ¡Infórmate sin límites! ¿Ya eres suscriptor/a? Te quedan por ver en este mes Te queda por ver en este mes Suscríbete por 4,95 € al mes o por 49,50 € al año. ¡Infórmate sin límites! ¿Ya eres suscriptor/a? Suscríbete por 4,95 € al mes o por 49,50 € al año. ¡Infórmate sin límites! ¿Ya eres suscriptor/a? Si te gusta, on+ es mucho más ¿Quieres seguir navegando sin límites? OFERTA DE LANZAMIENTO 2 MESES GRATIS Un equipo de estudiantes de la escuela de negocios ESIC, en su sede ubicada en el Parque Tecnológico de Andalucía, ha resultado ganador del primer premio en la XIII edición de los Premios ESIC Plan de Marketing. La competición se desarrolló en la sede de ESIC en Madrid con la participación de todas las sedes de ESIC. Participaron 26 alumnos, representados en 6 grupos, que después de las fases de clasificación locales llegaron a la final, donde un jurado profesional valoró los trabajos presentados. El primer premio ha recaído en ESIC Málaga en la titulación de título superior en Gestión Comercial y Marketin, con un equipo compuesto por Carlos Gil, Julio Carrasco, Alejandro Palomino y Manuel Prados. Los cuatro jóvenes malagueños presentaron un plan de marketing sobre la marca AC Hoteles, que fue destacado tanto por su enfoque de marketing como por el realismo de los planteamientos del trabajo. Ha sido la primera ocasión que ESIC Málaga participaba en estos premios. En segundo lugar quedó clasificado ESIC Zaragoza, compuesto por Anabel Husillos Antorán, Paula Marqués Prieto, Carlos Casado Fortea y Alejandro Portalez Coscolla con el trabajo desarrollado para la marca Vincci Hoteles, que fue destacado por el tribunal por el innovador ejercicio de segmentación del mercado que destacaron todos los miembros del jurado. Durante cuatro horas y media, los diferentes grupos estuvieron defendiendo sus propuestas en el salón de actos de la Biblioteca Universitaria de ESIC Pozuelo, donde se expusieron propuestas de plan de marketing para las marcas Room Mate, Barceló, Ac Hoteles, Vincci y TRH. Este año el jurado ha estado compuesto por personas relevantes de las principales cadenas hoteleras de España y del sector hotelero: Aixa Rodriguez, directora de marketing de Vincci Hoteles; Lorenzo Ballesteros, director de marketing, de Room Mate; Pilar Talón, vicedecana de Extensión Universitaria de la Universidad Rey Juan Carlos; Bernardo Losada, director comercial de La Branda Hoteles; Ramón Estalella, secretario general de la Confederación CEHAT; Senen Díaz, marketing manager de TRH Hoteles; Carlos Miranda, director general de TRH Hoteles; Iñigo Chávarri, socio fundador de Made in Me y José Manuel Mas, director del Área Académica de Dirección de Marketing y Presidente del Jurado. Un año más los alumnos han demostrado un gran nivel en sus trabajos y todos ellos recibieron en sus valoraciones finales comentarios muy positivos por parte de los miembros del tribunal, quien pudo comprobar la `ilusión, ganas y preparación de la generación que viene`, y `por seguir superándose cada año`. Todos los profesores involucrados en la actividad mostraron un alto grado de satisfacción por el desarrollo de la jornada.",
        "date": "5 jun. 2017",
        "source": "Sur Digital (Andalucía)",
        "keyword": "TR HOTEL JARDIN DEL MAR SA"
    },
    "https://www.noticanarias.com/2018/tenerife-hotel-trh-taoro-garden-presenta-unas-instalaciones-renovadas-tras-una-reforma-de-nueve-meses-y-una-inversion-de-4-millones/": {
        "title": "Tenerife.- hotel TRH Taoro Garden presenta unas instalaciones renovadas tras una reforma de nueve meses y una inversión de 4 millones - Noticias Canarias.- Tenerife,Gran Canaria, España, Mundo",
        "new": " El establecimiento hotelero de cuatro estrellas situado en Puerto de la Cruz y asociado a Ashotel, celebró ayer el acto oficial de su inauguración, tras un proceso de reforma que le ha permitido renovar todas sus instalaciones y decoración, así como la incorporación de las últimas tecnologías en energías renovables y eficiencia energética, mediante una inversión de unos 4 millones de euros. Tras nueves meses de reforma integral de sus instalaciones y su decoración, un trabajo que no afectó a su estructura, este establecimiento asociado a Ashotel, propiedad de , cuenta con una clientela de origen mayoritariamente alemán, seguido de ingleses, españoles y franceses.  El acto de inauguración contó con la asistencia e intervención del director general de TRH Hoteles, ; del presidente de Ashotel, ; del viceconsejero de Turismo del Gobierno de Canarias, ; del alcalde de Puerto de la Cruz, ; y del presidente del Cabildo tinerfeño, Otros representantes políticos del ámbito turístico, así como empresarios del sector asistieron también a una velada que ofreció un cóctel y música para amenizar la tarde-noche.  La reforma del TRH Taoro Garden se suma a la , impulsada no solo por el sector empresarial, sino por instituciones públicas como el Ayuntamiento portuense o el Cabildo de Tenerife, coordinadas por el Consorcio de Rehabilitación Urbanística de Puerto de la Cruz, en el que participan el sector público interadministrativo y el sector privado. Situado en el conocido Parque Taoro del municipio portuense, el establecimiento estuvo (2011-2017), fruto de la llegada de la crisis, que afectó notablemente a Puerto de la Cruz. La empresa lo sometió finalmente a una renovación a mitad de 2016 y reabrió sus puertas a los primeros clientes el 20 de junio de 2017. Ese largo cierre ha exigido una importante apuesta y un esfuerzo notable por parte de TRH Hoteles para situarlo acorde a las actuales exigencias del mercado y el destino, con una clara apuesta por la mejora de las instalaciones y los servicios. Cuenta con divididas en dos grandes bloques. Entre sus instalaciones renovadas se encuentran el restaurante buffet, restaurante a la carta, bar Hall, bar Piscina, área de lectura, biblioteca, zona de masajes y sauna (las instalaciones se terminan en junio), sala multiusos o salón de conferencias (se termina a finales de mayo). Además, cuenta con una serie de instalaciones deportivas, como cancha de tenis, petanca, gimnasio, piscina de adultos o piscina de niños. Las zonas ajardinadas son uno de sus reclamos, con unos 11.500 metros cuadrados de espacios verdes. El personal del hotel, de nueva incorporación, está formado por unos 70 trabajadores y trabajadoras, el 95% de ellos de origen local (Valle de La Orotava), lo que pone de manifiesto el compromiso de la empresa por los profesionales del lugar, de Tenerife y de Canarias, en general. Tras los correspondientes agradecimientos a las entidades públicas por su apoyo, explicó que TRH Hoteles se encuentra en una etapa de consolidación, “no tanto centrada en la expansión como a la mejora y rehabilitación de los establecimientos que tiene”, dijo, y destacó el interés de la compañía por incrementar la sostenibilidad de su actividad turística, en concreto en Taoro Garden, con la mejora de la eficiencia energética. Además, aseguró que este hotel tiene como objetivo situarse entre los de mejor servicio y excelencia de Puerto de la Cruz. destacó la importancia de la colaboración público-privada en la estrategia de renovación que lugares como Puerto de la Cruz experimentan y tan buenos resultados está dando. “Es el momento de los que han apostado por crecer hacia dentro y renovarse, porque empiezan a verse nubarrones en el horizonte de la llegada de turistas; quienes se han preocupado por mejorar tendrán paraguas, los que no, posiblemente se mojarán”, manifestó, y añadió que “con apuestas como esta es como realmente se crece en el sector”. “Puerto de la Cruz es un símbolo para Canarias”, dijo , que tras una etapa de vacas flacas “renace para situarse de nuevo a la cabeza”. El viceconsejero aseguró que el turismo “está obligado” a marcarse una triple sostenibilidad: la medioambiental, la social –“no puede haber personas que se sientan desplazadas por el turismo”− y la económica, “que nos permita que los negocios turísticos perduren en el tiempo”. Finalmente, comentó que “Puerto de la Cruz nos da la capacidad de enfocarnos en la solución y no en el problema”. , por su parte, dio las gracias a todo el equipo de TRH Hoteles, “porque hoy es un día importante para el municipio”. Comentó que este lugar “rezuma aroma al origen del turismo”, elegido hace décadas por alta sociedad europea para siempre como lugar privilegiado para el descanso y las vacaciones. El dirigente municipal valoró también la sensibilidad de la empresa a la hora de contar con trabajadores del municipio y del Valle de La Orotava. Finalmente, manifestó que actos como el de ayer “cristalizan ese optimismo que invade hoy a Puerto de la Cruz”, y eso es producto, aseguró, de la coordinación de las distintas administraciones públicas y de las entidades privadas. “Es complicado, pero nos hemos puesto de acuerdo para trabajar en la misma línea, ayudados ciertamente por una buena coyuntura turística de los últimos años”, añadió. Entre las apuestas de la empresa durante los trabajos de reforma se ha apostado por incorporar las últimas tecnologías vinculadas a las energías renovables y la eficiencia energética. Entre ellas, se han renovado las instalaciones térmicas y de aire acondicionado del complejo; se han sustituido las calderas de propano por calderas con un mayor rendimiento; se ha  incorporado una nueva instalación de paneles solares para la producción de ACS; y se ha sustituido la enfriadora por una bomba de calor con recuperación para climatizar la piscina con calor residual, consiguiendo con esto una sustancial mejora en cuanto a eficiencia energética se refiere. La cadena TRH Hoteles, que comenzó su andadura en el año 2003, continúa su crecimiento con un total de 8 establecimientos hoteleros, tres en Baleares y cuatro en Andalucía, todos en propiedad, mientras que el hotel TRH Taoro Garden es el único que posee en Canarias. Las fotos del acto son de Ramón de la Rocha y Jéssica Hernández.",
        "date": "10 may. 2018",
        "source": "Noticanarias (Comunicado de prensa)",
        "keyword": "TR HOTEL JARDIN DEL MAR SA"
    },
    "https://www.alimarket.es/construccion/noticia/236750/tremon-suma-otro-proyecto-comercial-en-malaga-a-una-cartera-que-no-arranca": {
        "title": "Tremón suma otro proyecto comercial en Málaga a una cartera que no arranca - Noticias de Construcción en Alimarket, información económica sectorial",
        "new": "Este sitio hace uso de cookies propias y de terceros para analizar ciertos hábitos durante su navegación y ofrecerle publicidad adaptada a sus intereses. Al seguir navegando entendemos que acepta nuestra . El grupo inmobiliario madrileño ha sumado un nuevo proyecto comercial a su cartera. La compañía estaría dispuesta a invertir cerca de de la localidad malagueña de Benalmádena, como adelanta Diario Sur. Una parte de ese desembolso iría destinado a la ampliación del parque, que contaría con 152.000 m2 de superficie, donde se crearían dos zonas comerciales, 17.000 m2 de zonas verdes y un aparcamiento subterráneo de 2.000 plazas. La ampliación incluiría más de 57.000 m2 de uso comercial, con un hipermercado, salas de cine, 21.177 m2 de oficinas, un auditorio y un hotel. El proyecto permitiría la creación de 1.600 trabajos directos, manteniendo el centenar de trabajadores que actualmente tiene el parque. El ayuntamiento de la localidad malagueña parece decidido a respaldar el proyecto, aunque la ejecución del mismo depende de que se resuelva el litigio que mantiene Tremón con el empresario cordobés Rafael Gómez Sánchez, anterior propietario del complejo, que se lo vendió al grupo madrileño en 2007, pero que de momento sigue gestionando. El que fuera dueño del grupo Arenal le vendió en su momento a Tremón 7 Mm2 de suelo por unos 400 M€. Como viene siendo habitual, desde Tremon ni confirman ni desmienten el proyecto. El complejo de Benalmádena se suma a una amplia lista de proyectos en estudio que maneja Tremón desde que superase el concurso de acreedores en 2012, pero que a fecha de hoy siguen sin arrancar. Así, en 2013, el grupo mostró su deseo de retomar un , en Córdoba, que contaría con un hotel de 4E y 200 habitaciones, campo de golf, piscinas exteriores y una gran zona comercial y de ocio, con una inversión de unos 141 M€. En San Juan de Aznalfarache (Sevilla), junto al hotel 'TRH Alcora' de la cadena hotelera TRH, propiedad de Tremón, la compañía anunció su intención en 2014 de sobre una parcela de 23.000 m2 que absorbería una inversión de 167,87 M€. Un año después, la compañía Málaga Port Mall, controlada por Hilario Rodríguez Elías, presidente de Tremón, mostraba su interés en levantar un , en una superficie de 27.000 m2. Tremón cerró el ejercicio 2015 con unas ventas que apenas superaron los 100.000 €, con fondos propios negativos de 54,89 M€ y una plantilla de 11 trabajadores. Tremón protagonizó en 2008 uno de los mayores concursos del país, con un pasivo que superaba los 1.000 M€. Un año antes la compañía había anunciado su intención de cotizar en bolsa. Por su parte, el catálogo de TRH Hoteles integra nueve establecimientos repartidos en Andalucía y el archipiélago balear, todos en propiedad, .",
        "date": "13 mar. 2017",
        "source": "Alimarket",
        "keyword": "TR HOTEL JARDIN DEL MAR SA"
    },
    "https://www.informaria.com/tres-opciones-diferentes-para-pasar-la-noche-de-fin-de-ano-y-dar-la-bienvenida-a-2015/": {
        "title": "Tres opciones diferentes para pasar la noche de Fin de Año y dar la bienvenida al nuevo 2015 – informaria",
        "new": "Los hoteles de la cadena ubicados en las provincias de Sevilla, Málaga y Jaén ofrecen propuestas muy interesantes para dar la bienvenida a 2015 El hotel es un establecimiento ubicado en la localidad sevillana de San Juan de Aznalfarache, a escasos cinco minutos del centro de la capital hispalense. De interior amplio y luminoso, el visitante encuentra , y que, al caer la tarde, guian a sus huéspedes hasta cada uno de sus rincones, entre los que destaca un del hotel, un espacio de 3.000 metros cuadrados con piscina, bar y . Su propuesta para Nochevieja ofrece múltiples posibilidades, desde solo 115 € para aquellos que sólo quieran cotillón –amenizado por orquesta hasta las 7.00 horas- y alojamiento.  El paquete completo de está disponible por 173 euros. La opción de se reduce a 158 euros, mientras que la combinación de puede adquirirse por 130 euros. Diferentes sugerencias para que nadie se quede sin su Nochevieja especial en uno de los mejores hoteles de la provincia. Baeza, ciudad declarada Patrimonio de la Humanidad por la Unesco, esconde entre su legado monumental joyas como el Hotel TRH Ciudad de Baeza, levantado hace más de 480 años como convento Carmelita y convertido hoy en día en establecimiento hotelero singular. Ubicado , traslada a sus visitantes a otro tiempo, rodeado de arcos, piedras centenarias y aromas andaluces. En su interior destaca un , en torno al cual se distribuyen algunas de sus 84 habitaciones, decoradas con gusto, y dos magníficos restaurantes.  Su propuesta para Nochevieja incluye . El menú incluye creaciones del chef como , entre otros platos. Además, el hotel ofrece la posibilidad de acudir a un cotillón externo con un suplemento de 35 euros para recibir al 2015. El hotel TRH Mijas, situado a los pies de la sierra de esta localidad malagueña, es todo un referente en la : por su tradición, ya que recientemente ha cumplido 40 años de edad; su ubicación privilegiada, entre el mar y la montaña; y los servicios que ofrece al viajero, como estancias con ‘aire andaluz’, deportes al aire libre, jacuzzi, sauna y cercanía a la costa. Su propuesta para Nochevieja incluye . El menú de la última cena del año estará compuesto por platos tan sugerentes como entre otros. ",
        "date": "8 dic. 2014",
        "source": "Informaria Digital",
        "keyword": "TR HOTEL JARDIN DEL MAR SA"
    }
}